[
  {
    "id": "2017-01",
    "name": "Paris - Rouen",
    "strava_route_id": "7608196",
    "cc_link": "https://classics-challenge.cc/post/7",
    "distance": 151606.22776364977,
    "elevation": 1799.2615002092673,
    "summary_polyline": "_fiiHan~LnDtKuHj]mo@ytAeb@hf@k|@ts@rGr[eTnVeKcXgK~NuOpH]yLkKtYkHlAmCh[kLkGoHpUaWsXwErYgm@ePgMtGsj@t|@_p@lq@pArDuEdFsCn]rEtUsQxDiWnRqe@bp@{VboAeUbk@dW`RaXbdAaVp[wAvLyDU_Cbj@yg@z\\oa@vu@wNpfAoPxt@a@t_B}Ifp@bEl~@u@~yAjAln@vSp~AmJt]jA}JyCk@gf@fC_BxXmSi@oj@l_@fHhYea@fUtA~FyDtBlGrmAbKz[wTv`@}h@rn@gu@uFwNbElPt|@hA~[vOh^fBdcB_Gxf@wz@xWgOcDgJxMcStImNl]cFb^uM~WuF~g@yGtKgDoAg^n{@wK|c@_GxGRzOgQoAgFhFw[fx@cG^_U{ZeYyKcKxaAu\\bv@cAz^gInRT`IvHdE}Ppz@eArTbAtPvOl\\yW|d@_OpFb@`K{c@t_AhClFcPxR_PhqArArWgKbd@pG~`BbJr\\Zrk@~K|_A{Qt@FxcApEfNw@vKpd@bZvSp~@lGjbAcJvg@{Ujc@yEdk@|CvRiNoFmLdPmhA~a@sa@pj@|@zM|DbDm\\~~@_Htb@uA~c@vCjBh@pKaBfPzBvp@eG~vAdKb]xS~S_T|m@zCnNoYnr@kMfQoh@yBeWvGoJxJky@tRjHxXu@tMqO|O}DzLob@bS}Vxu@z@`EcM~MgJ{FrAdRwD|OuOjWeIbAiWxWeRfbAmWli@qj@lyBxFvZqTdFyMqDyE~FRzOaQ~K{e@kRuWCm^tTya@fp@in@|`@cKpUqIne@_Tdc@abA~tA_`@pKsWsJyF|~@oTzE`@~MmPdB`IfSqEhi@xHr}CgFl_@g[lXrDnEMhIcZ~M}[`f@|U`MnB|`@_AlLqE~B^xT`IdZpLvmAye@`P}Vfa@yFhSmNoZ_LkK`Ifq@{_Ad_AsZme@wRqKuLc[aL{@ma@|`@yFxToh@jRgHtNkLzCsOxb@{Z``@nXd[hOlGeFtp@bHlc@qRzO}R~x@yN|[sGnAgGuMqCR}Sv`@_Hv[oR`SmBtj@{L~U`^zj@nKdg@h@xZnItNlO~kA~Mzi@wOnOiLq]gf@fNcEoU}GxK_IsCnLpXwEbHzArIiIxOt@mVgI_YgeAyTch@~x@wStTgLxDms@pgB_q@rd@cY|a@gVzAiBaTwGaHcOfX}DyB{Lt_A|BhOErl@aApDkG{A_Hja@iEvs@yO_GqKz\\k^|bCo@hLlC~CwRld@zF~KeSjoAu_AfdAoHb`@mRvUyD`Z_Rz]qBoSfC{GgB_JpAir@}Rz~A_Q|w@mFwBaCrLuL|AiCfV~NvGxEuBlMfK_D`Skx@ma@"
  },
  {
    "id": "2017-02",
    "name": "Paris - Évreux",
    "strava_route_id": "7452449",
    "cc_link": "https://classics-challenge.cc/post/9",
    "distance": 159409.42737364626,
    "elevation": 1396.4207586287957,
    "summary_polyline": "mdiiHgj~L|BzG{BzH|U~k@hEzZsA~FzTbr@pA`b@hUjmAfE~y@sHvXzFxGW_O|HcMpP|E``@}AnQlGgH|b@k\\bI}b@iRiCsYlHmMcEgCa]dyA`AnNx]zVbCfJvPnQfv@_Uhi@nFxCnClBfa@pGuAnB~PvhAjvAbFfYpP|LjNePiG{g@zAg@tH`NdOqIzK`UnRlQd\\xdA`E|z@nKde@gF|JfElA[`fArKfDp@tIzThEl@vLtFfLiQncAls@z`@zHkYfE~VdDnBlIaKrFkl@t]rEdGrIlk@fYrBXvD{K{@jO`JlI`Om^zDiBvNmw@rWn\\tInTUn`@yE~Arc@xV`e@xEtIhOfHeCnDbLaEfI_@rLpc@zHfq@zl@b@|RsGbk@dKtC`ZiRvJv@|K|^`q@`Xr]nBvChJFp\\lPhWhBhPkEnAw@tMvEly@oG`nARrl@b@fNhTjx@hBlrAqV|uB\\le@hCdKeKlKwE|a@b[`eA\\jf@eKrx@zFvqAeBtKfDlZgNbs@vDd]cSvt@gRzyAmEfHxOna@pYD|HnNbBdNnWhDnEbT~FbcA?df@rFp_@pa@~MnFmPhDNoD~g@mMh[fKhLxMhc@{PfZoFdUuJLoMdwAsU`v@`PtNhMtw@pUzw@tL~cAbPhg@s@tZtHdGx`@b{@kBbTyQdi@mRxS}s@r|A_Px}@yi@da@ba@jrHyA|SoPmJ_SpDJdUtGpCtZ`v@pT~\\{HvLbDdUkC~~@yWvUKvSsJrGO|I`Nht@dVdj@qEz]vDv@wEfc@`AdQ{Uz{@tGtaAyN`yAsSrd@af@fu@bFhIbFxe@hTha@j@lSkO|r@aPrxAwGbShHdQgLR}AvQqYxa@e@nVsKbs@sElhAlAd[iRvj@}Blq@xPd^_H`_@{@nX|P|YlGpk@sCdHxFnq@mG~JUxJrDjClB`QrGn@~Fhx@xNve@SjJk[j`@wVjQ_H~PcFdCsH{QaF~EbE~Rqo@iBkDvEjAjIoEpB`A|H_InFyP{Sc^{Dwa@nYgW|a@yFjBfElW{@xd@xCdr@_Ntc@aFtC|Blc@oKsWaXjJkIsBhIlq@aBr^sDhLxA_\\yIl]cUzR_Cd^mG|CSfQdKfOzAjWyD~NkCvm@B~}@_Hte@wI~RuI~GgTeHiHtQmPM{CxVwTnJkIp_Ae[pRaEzKsBv\\}nAnhBoNre@wX~Vug@vZu[mCg_@tTo]{Kkl@_AiS{M}]mv@qTwJeYg^_TuLkZwj@mv@aJe[gi@uFfIyJtBml@Joj@pN}X|`@q_@rU_a@~KwDtQeAzpAwVdHag@o@}LvM_`ArWtA~N_BpF_e@zy@i`@nhAaEmCuNbIwf@{DoQs\\kq@`_@}M{RkHwXqImEaHbCqH}`@gKAyJ~HaOtv@kGbw@aFrQr@vH_FjPqXrTsGlQ_o@lPnClSySu@s@bXsKdFhBdLct@~_@wReJyEia@m]vMgHe_AsPfEdDfKbTqKvGtDfBw@_CcKnMkDnC`O"
  },
  {
    "id": "2017-03",
    "name": "Paris - Nemours",
    "strava_route_id": "7439991",
    "cc_link": "https://classics-challenge.cc/post/14",
    "distance": 165899.4678877187,
    "elevation": 1146.3192106325416,
    "summary_polyline": "mx_iHavtMhNcTrD}K~@se@bCkUUo`@jBsUfDeMbNuTdGmXrAkSFwo@vGcw@oPch@[qvBig@agCaBgJh@wIuDuF}CkZwHyTmLyDwInD}Ay@IeDjDyFa@oD}LiDiChIiD}KaEeAyDbBkSePuWooAmBwXeGyHcH}_@e@s[tDoj@Dco@_Cin@bHoH_BaUr@wT}GDmCm^iHscA}@alA~Gil@a@aDbKg~BeGqs@a@wXxCop@m@kKl@ms@zEy|@iAaJt@wHhUi{@rHsImD{JoCia@gp@`GaGyDdDkk@|GsPfA{Qy@wGl@ed@dLor@tBsIfFkHhTqs@IuCtG{[bVsPla@y@nMiIdOoD~h@`Fp]}Pf]~Khz@ca@fLzAbNgBxG_JjCqKdSwTrKqDlPExHaGzMeEnEaLfi@{^vKn@lR|RfKkC~f@`AdA~GlE|@hP_ZhLm^zZ|GhRsW`WqStBqIvUwOu@mq@oHktAh@qGxp@uExZhHvUpPzNf@zLiDlh@jHd\\lMvEaMvEq_AbE{^bBinC|Dei@tNnMdl@~WhN|C~PxSrKP`Z`NpJ|XxYn_@bFyJ~GjChRkFfV{\\z]{CxOzBhNuOf`@}YhLmVpFsHxEsArRo]xHcT|AuLxJsIlYy`@dj@mfAbCoRrGdFlvBuZlUU\\bC|HIbpA{O`Ddp@LziAnUpFRzSdPbL@zJz@tAfN~Jf[zDlRfLLvDeChC?tOoBvToGx[iNpmAQlLnF~OtE`AfGjItDj@lIjJ~Pji@zAfNnDvI_@zI~CjRsErIHrC`Hli@~@p[`DdAkAbStCnHdA`SgIb`@X~EdEg@fDiOrJ_KlSmCfB`PzFpMjMnDpq@o@lLiOp@`\\sAt[lRzTfGtCfIcDvM~Wx|@r`@J|WjBa@n@`ClEvUo@|A~EdCvB`EpLfCbLxHpRlg@|dAp`Bp^tTxZxt@hHd[p^p\\hQvKdEah@lAoa@cCgb@uF{~Bn@cg@zDs]pN`Hj`@tk@dfAza@vNcJxWwWrKqCtOcMl\\oHN_KaKgLHmMgHuQlBmK`WrMzAtIpMrQzk@df@ja@~Mf]FdCvEi@uWbHsWnZHfDtFzLy@dWgIzNcQfHma@nCs@\\_d@sAs[sKgt@gCg^nAmXxJuXx[a[dOuB~@oEnVz@hB{B|Pe@`NrDfJsCbFeEjGgMbHoE{B{Q|GcHrIxS|EhGr[sm@uBcDxGkErTgp@nO|@`NaEgAtPxIzD`HzNr`@pb@xKfVxKjLvYlf@`RpFpBrKfZxq@hTf}@dFxL}WzWvWrz@~Kph@hEtd@s@vJ}BhF|Eb^nAd`@gDh}AkKzDiO~N_r@gRoSzF_EpKgBva@{Cj@iAjFcEtFnAdGoD`QaB|CgQ\\|NrlEgwAfhEp@`eG|BdRq@d~@`CdRl@pYtCbCeCzMbAjC}@rK|@fOzAhFfIrGbEfItGkH~`@cLn]nMpKf@rJ{n@vE`A~CiNpLcVpMol@ra@mfA~@qToAe]yDcM`D{LiDmQgA}iA{Dac@`Ggk@eByK`FeL{BiAv]k]tF[`DmO~EeDrEsStA}[|BeFp@wV|CwDnHwVdP}Y~KmNbNdTpNlb@bEna@zEhUtBeTbHyUt@qnAkMaj@eDgErBcF~UjLhINcCsXyM{Ti@kFvB{Ll@b@zA}D~HeWlCiWhUmd@hG}FxBrAlRsSvHoNbP{d@bQc[rHcSfPoDzd@c[xXcKdHcG`Ybp@`X}_@|KwHzH`d@rCxf@k@lFnAxDfEvi@hI|d@]hNcCdMxDjxA_@dEwF|Ff@|@"
  },
  {
    "id": "2017-04",
    "name": "Paris - Trouville",
    "strava_route_id": "9377114",
    "cc_link": "https://classics-challenge.cc/post/16",
    "distance": 233785.08938676282,
    "elevation": 1981.7736681257372,
    "summary_polyline": "_fiiHan~LnDtKmB`JnUxj@vCvd@vNn@ddCh~A_AxeBtm@htAoBjn@ztAiSbj@jlC`^`o@f`@dOx_@lo@xHpeB|_@vz@r@zmAe^dsB`FxGaHtSzOtIyNx`BdPb|DrF`YeFnf@a\\jo@yOrn@sb@kVsG`Jsd@al@m{@dcFiWbNnC`_@aKnK{M_BuMdPmOzZ}Pfv@cVbYkJjXp@jM}NjGiLlc@zD`|@cNlF_TmJmDrGqWhcAe@ny@kp@ka@wlAhgDmBpgAm[x`@qg@joAwZjd@sN|j@rz@xiAfF|d@{g@|GgO`M{c@zfA`Q~u@jGf}D_Rh}AqItIwHrh@~h@`cCfeAphBlPjv@rUxArWbRpFnRuGbJB~[rApz@rHnFkk@djA~[|UhD~^mDhb@kJ`Qc\\`L@dLoV`Uh]bN~Vln@a_@xF_HpO`@xQxaAjaAk]lq@iVdLqQni@yDL|JnfAmArl@`OxcAwAzXz_@t{@`PhJ_Dr|@lDvh@yd@tEgp@j`Ai[`SwPnXoAjXg`@dCcM`W`NrYyFriCeC|OuYzV}ErOcH|yAuIbJaIuEf@b_@zF|MqEzUvAj_@bR~i@bGxz@bYfvAEz\\~GnKyz@dyAq}@blAmGjYkA`v@qXhb@dAnOcHtYv@~sAz[feDfBlwCxUn^vUn`A`b@n]tEpj@xw@jrBkKdN`QvGHf^wUtq@y@hwBkQv}A}CzwB}Z~cAuCdg@wNjc@oCljAaSpr@sNflAcCbu@pEbn@qDtt@ec@fmAe|@~}AaOd{@iO|N{Izu@aO~f@}fAfpCoAd~@_NbpAkp@rfAyKk@{Lwa@eReSSdYoErGhFnNShYmK|k@xIhcBzRfu@}QjmA~Njj@lEfr@{RnuGa[rbA_D`rBkm@t`B{SpDyG~Ye_@fkFpDhh@dNxLnFdTxi@vg@{Edn@fBdk@oVnx@_i@bVi@dr@wRnfAeSvWml@x[eIiR{QzCHhx@|Gjc@}Fb`@w`@ze@wKzs@iMaEb@~MmPzm@mwBteCzEzLiPvj@kl@xn@fAjGi[xm@_Eru@sZ|a@wR|Dn@bz@cXlYeMto@lCtx@eUq@yKdUjAnUdLBZf^qFzBgAfS{Agb@aVvHKba@fGd\\iM\\cgAvz@qoAfrAkn@tJm_@zUsv@r~A}l@fn@{[|Ke^tc@bEhk@uCru@yP~Ji~@cN}dAwj@wa@n[m_@`C{Fvc@kR~i@gGhBbIfcAgUh~@tAxXyRxg@gDvn@eRhEon@fq@Zd\\}k@z[{NeJ\\tK_]jh@yUxs@i[dpBqAvi@zDfh@uRns@bBf_@wj@pz@kTqNwz@bbAaBbu@p\\jbBwI`o@rGxeBwC`l@uo@|iAqEll@ii@nxAqLzvB_Ibb@yqAhnAoLuJtIf}@uExw@oOln@k@hc@tU`k@gYr_A|[v[pRz_@iR|yAjEf[oIxSrAt_AmI`\\qWxWeOy@sGzP{NpFtJzs@cU`Dc_@nnA}]`p@sg@|RgXl^iUtm@`BlO}c@pI_`@gd@eYg@g`AvhAmJrTc@rQeYrR_DsLaOxUqYyu@tViTmCmUoIoF{b@bk@"
  },
  {
    "id": "2017-05",
    "name": "Paris - Épernay",
    "strava_route_id": "9811401",
    "cc_link": "https://classics-challenge.cc/post/20",
    "distance": 177234.95636261627,
    "elevation": 1917.3738928770726,
    "summary_polyline": "mx_iHavtM|Saa@~EqkBnEqTnU{h@bCwmAzG}s@xMwXuPu[qNhBf@se@x@tT}^|DkNkDsOs[yFyw@z@sbAxLy}As@oN_Mu[mXcIkOzIiJlPwb@dJkPsCqQoVoLyfB~Bww@wHy]dBy`BqH{^}DyBwe@xR_GuL{Gcn@Eqr@bCoSuEqf@t\\eJxLrCxA}LvSz@~DePfIyI{AysA~Gil@`JicCgHimAtJcoDeCgm@aNcHmJfFqGaq@nG{pAnGeNtAiTK}l@|Mox@n]qaAjGq`@bVsPla@y@rb@iUpNuj@oAoM`L}Nxp@eaCs@kOhFcCkD{SlBqj@gNe}AvO}z@xHqKeC}jAkVkvC_Wq}@oG{c@{T}k@iRolAaa@{T{l@cNsSu`@~Aw@oH_bAoMmPyJkFgR|AgB{IaQvOoFiz@vEeMqCi@wCc[fEwNzBmt@|HVxCkHdH_u@mFga@{`@|l@mXgb@hDkJ~HyxAc@ql@uG`@s\\g\\sCjF_HB}@cS_Q}W}TrBiSoKjUmb@aCia@jTgqAuMq_A`e@kUnk@aL|a@Q`ZlHdB}EvB}o@hN{w@aCi|AtQwWpLiEbQu`AaDwRpAwTaNelAtFk]}Ba_@dCaIsEkR|CsRcO{e@qRuPw@mr@oZg[y]eLeXyk@oQ_hAyKkQwPck@cAwV_E}BsEo\\mNqQfBmTmc@u[iFyLqTmH}Cua@zCmCjAqTySsStBwI{JoJiVwf@b@oHnLuHDmDeTd@yJ`Ym@cXaIrXuNsH_CoMuEaEnKskAqXnDaQcgAyLaLiDuPgI|EsMyOOuI_YaTaPe[cJmd@sJgQ|B_[sFeL|A}G_E_IiH_yABs}@vCw]}Wol@`BoQsS_dAiEsf@vCyf@aHsEap@l\\wJcuAhFqg@kDsXLa^gtArm@{kA`EiXvXiZbLgIf@q^eR{NbKfCoKpGyCbQ}jAwCy^d@}\\pG{g@\\ee@~Lul@~aB_OnJaHdJyZ\\ov@aGkh@vAil@tKqd@iCcZrAas@zXoe@l[{MvX_b@xJk_@XyX~L{^sDm[Zo_A}JkD{Qis@of@ey@me@_gAsDeViNoM[sEmFqEaRfDgh@mGhZmJoA}KqG}AbFmEaVwHmXqd@aPsLqH}k@kJyUnRwZzl@e_@`M}q@dKaXjS_X{@uXdMqSxAyKoQ]eQaLkQqBce@g`@{@sZ}IhSnCod@iB_CeEoAuFl^qP{DmNiP_Vs@uTkSgJuQuc@iLuPmVi`@qVo`@B}@mFaLaCeKdDsBePhFeEyFsDaK}c@oBkaB~BaXgGmg@gj@}~AqInFgFmZcDsbAoZiMeEeOoTsXo_@wZ`DmVSef@xMgh@dL}OkVa_@sGsa@{GsNsB{q@|@yc@oCmXxB}G_CqJxBsXjKoTsETrBwSqE_y@`Uw`@yQsNkf@lHaIqi@wRmGu_@bRoe@px@eK_Wb@cKoBvF{VsIuKqPW}GoHgDhGaZc@in@qGgSuGrKlBitAyDw\\nDcOpPuV|Eg`@~A{aArScj@tOs{A~BqFdL~@rOomB~CozAaDu[jLG{Iew@}L{j@_CJzRmFt{@xIvWsDbDcBLkHjXJTuD~UbF_@yQlIxIpBa[}AeZpMylAwJ}TmHmD"
  },
  {
    "id": "2017-06",
    "name": "Paris - Fontainebleau",
    "strava_route_id": "10382702",
    "cc_link": "https://classics-challenge.cc/post/22",
    "distance": 142959.7902395894,
    "elevation": 1689.3191329114925,
    "summary_polyline": "_fiiHcn~LnDvKmB`JnUxj@hEzZsA~FtUhx@fJrAnO}GhH~JbBnOzRtOpApG`Cbn@gBl[oVlk@cH_Ao]d|A~ArJx]zVbCfJjNrJjJbV|dAoS{Er|@iEjStKt\\rFjv@zYl`@dB}VzNmCjFpKtS}B|AzMxS|d@ZzN`MgD~SpPlFvj@eB|TdH~VbBvZvO|OfApShMgBbOtk@pFf@rVmc@xDfG`CgKrf@vLl@vLbGpLzDkStI`DtElXhp@nb@d^vEdGrIlk@fYrBXvD{K{@jO|GnGoCdHzZrXeRb`BcVfoAtGbd@pMnMn_@vLf[~u@j@lKqGva@`Sfi@rFfj@`GnDD{Onc@fFrBoDfIfMhFeJzECfStf@~O`KvItc@z[kMtQlC|Ro|@vMcDnGme@lW}]nl@gSdQHvVxYoGtiAx@|z@vNk@hV|L~KtSpM~JdZpt@vXlE|DzLhSav@hU_PdAskAxIkp@`KpJjPs[|Ak^xKk]k@aQ~IM_BsKv_@{tBvB_]|l@kO`k@e}@tKSvNpTtIzYmDhY~RvBdPzXv@zSoEpaA~Pxo@fZta@rLlHdMb`@@rKv^|Ojf@xG_AtrAjRct@dWqf@z`B{_BdSfJlNvTlUuD`f@j\\rL`@nNwB~HkRzReKhTHAgGpDI~M_[FqKxKzGaAaT~DiHfYvOza@yBfp@q[jF_UClOxDaH~BrC[wVzJoGva@c@lKbJzm@vM}Cse@wWoy@~B}G|WaOhl@oaApR_EWw`@sL}{@t@qIhMoKpTuA`g@nK~VeShBqTgNaLdAol@hMaiAbPoRjN{d@kFaeAvB_e@nMbEzMmm@UsOnRoPhA{TeBmj@xF_Uqd@ow@kEa^vWo`@to@klBlJeIvKfVlB_@aCug@hAqShE}GTco@gCcKnAu\\`E}P~IkKmKkg@|Loc@fHdDxBeHkBiUxFi`@rAuk@tIit@dRqk@nEeb@qZs@ir@}c@cXe]e\\gw@{KgEkFgJ~N{PbPBsAmF~DgDf@wMdFaA~I_Tp]gAhWikBzUio@hAmWcScqBi[cXiQue@fCkOjK{KuCeo@fM]vR{ObEuOpRyDFcaAxK_Zjb@ayB`Wq~@NiFuJmJcOqh@}^cTil@a|@g_@ex@CgK`UaiAfe@tI`MqI`Pga@oBeH|E_UsEkD`DiUnN{BzCiRbYgTbE_Oi@sSne@eD~Qm|@hPqKvLg[bd@ysBcx@acAod@s^zTgaAfKwjA`W|@rM{RlP}IzZm~A|c@ss@xSi`ChJci@rW}RLuv@nFyMj`@wa@nM}\\vZgVuN_qA}LlEuIaFwTjAwSoZgVT"
  },
  {
    "id": "2017-07",
    "name": "Paris - Chantilly",
    "strava_route_id": "7454996",
    "cc_link": "https://classics-challenge.cc/post/25",
    "distance": 109128.04997237989,
    "elevation": 1196.251161582588,
    "summary_polyline": "_fiiHcn~LnDvKuHj]uD|C_AfGoA~@uKmOaqAfgAmLMoImT}Rku@ax@ytBiAyLaAUc\\wfBiMcj@aGjIkC}EicAy`AmYoGiTjE}S|JwHjIoFnLuV|wAoHvo@yBba@m^cH{JoJcDrC]mHuMxD_EoHuAtAtCnKg_@ll@_OySsC~FwG|CgJoH}CGsHnRVjKiBnA[xJqFnNHrDpChCP`HoIJaLsDh@pEkD~Ry\\`XyEvKgE~BoGlK_MhDgk@uLtCuWgKkI_IqOqUwTZsJqMsEsF{\\oC{Gq^aa@mMiYoB_JkGuIwOse@oN}RgN{K{Gff@aMtHyDvKkCpAaF~IiP_BmLzMeTtNiDlM{ChEsCpTcAl]}ClLsNsJsM}Pc`@rUcRJt@zQpFf[mAxA_JgAj@}KwCgWiPiPwZeK_RFaMxCHiRnEi]uCeJkCScA{GwTvGeLlIfCpHuBxTe`@dr@oGzj@ad@xPSfH~A~LsC~JxA|ZkFbKE`OoAnD{BGoGeGoEiRmF{IaFe@kDpCmAlEoDbA}QeO_@k_@aO{}@}GgMw@gIzJmObKcb@rJ{PuLmP_P}Mij@uqAy`@~a@aXcs@zKgf@`QxBlRiOrWmt@dFsVqCwC\\yGgMeXo^mLoYyBwDqNiH{BuGce@DcMcFaI}ZiAe@lKwVxk@oEkXih@cn@uYyy@ImKzCwU~EaGcXekAqCgBw@uEk|@fA~FogDbJsTDvThh@hDpNmgAdG{ApJqy@xBygA}@ydA_o@dCiPmTwHqWuFfAaHkUeFuHeC{QlIuO{A__@d@mg@kF}SVuLxEuGvScFl@eL}@{w@zEsE`@cGzMyD}@kShFgfAaDsUO}XhHqUqRkRsBkPbI{`BxHu[jCr@bEkEd]u@`TmFvE{DrByHzKoHbImDjLMpEiJjYmL|E}[rE{I`Lki@jEsKvFyEja@tO~Fg@vMvMnFuQcAaEbCsYEcWiIeLaaC{nEax@kf@az@frAuuBpm@y`Ad{AyDnKaIxJy^ft@{IfCqOsMoJnAqIpS_Ch\\yJrVmBp^dAfLlGjH`Ixh@zFfEgGtq@fCzMyBpOjDzTTlU}A~WvBlPv@tq@dDhF~BtSE|EuAvCQ`Q~ElXpDpl@mCj\\kEjNk@`JxU~CbPxh@zX~i@jAtj@@nAwi@lj@~CtZzIxKpDh]d@`J_EtObGhn@}U_KcA{MoR_KUwUmLw@a@pRxAzCJ`TbBy@h@wH|F`C`Ghd@hZeE"
  },
  {
    "id": "2018-01",
    "name": "Paris - Provins",
    "strava_route_id": "11622226",
    "cc_link": "https://classics-challenge.cc/post/31",
    "distance": 103198.8594491366,
    "elevation": 890.6763997061324,
    "summary_polyline": "ab_iHi`vMPm]`C}SoWxBuQuF_X~CiF}RuMsYkKej@lA{NlqAioBxRsRaTui@or@_y@{EsZx@y_@_AiL|BqQ`Kq|DoB{Au@wEeKgEuDmLaEeAyDbBkSePuWooAmBwXeGyHcH}_@e@s[tDoj@Dcp@_Cim@bHoH_BaUr@wT}GDmCm^iHscA}@alA~Gil@a@aDbKg~BeGqs@a@wXxCop@m@kKl@ms@zEy|@kBiKeJkAiHeJyEgUqGaq@nG{pAnGeNtAiTy@wGl@ed@|Mox@dH_MhTqs@~Fu_@nVoQla@y@x`@cRjP{m@oAoM`L}Nxp@eaCs@kOhFcCkD{SbBmTCaZyMgxAnFgPfHui@dDwCjAyFfA?iDgcAb@uFkVkvC}Rsx@aC}CFmEwGm]sFgI}G_RmNmo@KiRaCgC}AePx@oAMqQeBiTvA{G{HYEuBbFmDyGgDhA_HuBqYfBcd@wBqWLwVaCwBmHo`@vAem@~NqWbV}KiD_L{Au]fHvMbGdBjKoT|Is@tXeMlNyA~ItBjMpVxG~FgApIrAdOhJhE~SdY~[vBrQ}AhQ{Lm@uHpWhBlAeSlPm@~Q{EpTaY`n@qUrmB}nAnfA_g@jZyUxEiIp@aFlMoCbD{FbAyMQ{|Bs[_BqTcJc[q]gGsJ_CqLmAwY_DwMa@qj@dGod@gDe[zBihBxTscAHmcAfCy]p_@ytBjBku@}D}j@bAwNrA_@nD_O_BmO|Fk^`Bqb@rCaL|H}KhLw[bf@a}@pGu[nPeTdIuFz[KlBkV~FwY|Q}`@jD{Q[wI~ByTpGcRnL}IpDsG`DySpI}OtEqg@Le`ArCipB_BqNlCyHzVwM~P~FdX{FxL`EdM?nq@uFzOnEh_@mDfGjEjH`@|_B_QnMiNvV_G`m@zInq@x@tY}ShVmF~^yRvb@eIjy@bBtWwF|KoX~LcHzGi_@CuL_CyFhFkDpAaNYqJjBwMnCeL~CyEhJeDlGoIdOaIzPz@nHaHzWxIxOuQ|G`OfBu@lCdN~JwDfAnKjNdChArIjSi]g@qMzGu_@~D~BhCiGjGkWlDwEy@{FrE_Ev@dJqEy[J}E"
  },
  {
    "id": "2018-02",
    "name": "Paris - Chartres",
    "strava_route_id": "11759000",
    "cc_link": "https://classics-challenge.cc/post/34",
    "distance": 106644.90667239657,
    "elevation": 983.2046482660893,
    "summary_polyline": "aeiiHwk~LbBdGNp@j@Xq@`@yFbWIt@Rr@[b@_@`A@Pf@r@L`@N|B@`AEbAYzAa@t@a@\\k@Xy@La@CMHw@jDKVxCpBf@Ht@TTAK`@Dp@D^H\\l@rG@j@NnBn@vPB|CKbBUlBWnAwAjDSTKDILCRD\\PNt@hALp@t@zHf@nIT`C~@vHtCrPZ`C`A`KTdB\\xAzAlEZnAPx@?fAKBMRA\\FR?fAeIph@m@pEm@pC}BfHaBbDeD`F{@jAgAvBaClGf@r@EtEc@rN[jFa@`WKDERFdDE`@s@zBpCnFv@~C|@|IfCbMRx@dF|IcChEnBjCTT`@x@nA`FNNVAJM`@w@|@gATQPE\\@i@rE_@tA?RDV~@e@hGb@vAFt@@RA^Mf@i@jBgD`@i@HG\\GTFzFrCPBLZ|@rA`@VTFf@Dj@?NIzEB`FzCZXrRvVNVjAvA\\YdFQfAL\\k@b@k@zFyBj@Qd@@XIz@bEr@zD^l@~@r@nAh@Df@Vf@f@b@rDbCxMpQb@XvGpC`Dn@XRXDWU@?TTLTbBr@j@b@PTRr@P`@TZv@bBvCdJ`@`AZj@v@`ArDdIv@jCdAnCV`@@b@ZvAp@bERtCA`AQzC@hA~AlJxBhQh@~CC\\]nAGd@@PPf@tClCPMTa@VBNXPnAl@fCt@~AbAz@b@sApB_FnKlB|Cp@x@I`FkCv@WDQZT`EpJJFJ@VE~CsAXGtA?bJ[RxChA`Ix@dBx@fAfDvDh@bAnAvDvDbM^Q`@|BLpAHfLP\\LDx@KtJqCrRzNj@t@\\v@n@pBxAbRb@pGf@vL@fAEp@y@pFo@rD@|@p@fEt@lCx@|BpA~BVfAXbBbBvZ\\vAZz@j@lAl@z@hAt@pDzC\\Rn@HRALDFH?ZK|@?VP\\T@SfFB|APhAPn@h@`ATTp@b@f@HRAd@ONMLQN_@h@gBLQd@]l@EPBd@N`@\\Tf@hQ`r@Hl@?Zo@bPC`@Mb@Dz@jCTlPvI`^tQNTnARvBf@FEXLnGbD@LHFpBdARFlE~Bn@b@|@f@d@P|@h@fB|@ZF`_@vThEmTHOVwAAa@JYHEn@DJDXXHP|@hFl@tGVvBLn@Pj@Th@X`@^VTJ^B^C^Mb@[|CsDx@iAr@_BT}@TyAHaAd@kRFeAVwBXaBp@mDXgAPgAtCd@VPTHpBX`AHh@GnALxDj@rGr@~Fx@lCvAXHbAOP?LBfEpCe@zB@ZDT~BdC|ApB\\ZbBnAxAZtAJmE_A\\VxAZrAJLC`A^^f@`@v@d@hAHFV@NDd@TPPn@VpCn@R?~AXLWhCgIJu@FKJDBJmApJ?v@Dt@F^L\\hA`@LN|@hBX\\pCrALIFBBD~A_B?@r@{@~AoElDiJd@eB^[RGIwABUROh@Sn@_@n@SCMJGJSLXZEx@Db@P|@d@|@l@HLhA~@zDjCtG`EdQnL@ZLPNBLGXLbGxDhB|@rRdM|@^z@TdD`@bWnBd@AXFTKf@XpATfAX`Ap@dAbAl@bAf@dAh@bBM`@?RBLLNN?HFHh@R^PNl@tBr@zCjA`Dl@lABVEN?\\PjA?hBBBZ@K~DK~@@DIXEzBBzMDpBTrAh@jAxWh`@n@tAz@pCbAxFXhCJfB@b@Oz@?T^z@F`@D^Gb@Fn@NTRJNAt@^`BxCfA~BZb@dFlE\\^jAlCfDdGTp@PP^Jt@@vA[fBY|AId@DPFjAbAVHTGJITg@Be@Ea@Og@Io@TaCL\\LNPL~CtA`Cb@^B~@Oj@Ur@a@bAy@pDqE^Ob@E^?RDVLVD~@AZKz@y@bB_Cl@q@`@Yd@Qr@MX?f@JdAd@d@NjBHVJ\\VV\\N^d@lD~@xIBt@PtANr@Vl@Xd@jBnBTP|BdAlGhCxDdBNLDXHLLHH@JCNMnA^dPjGb@VvFnBh@N^BhCf@|@^lF~@lA`@f@Jh@@hAChAI\\MtAgA`@CNDNJHLnBnFT`AFh@?bBe@zGExBf@dKJp@j@~Bx@tB|BlDfF`G`BbBAPDNHFCVCpAOfAC`@Bl@RhAjAfCLv@ALHJFGZLnBtCdA|CPT^PhCBxDh@zEAp@JxFpC`@Jf@BrAG`@@\\H\\NlGxFfAx@l@ZjAf@RDb@Eb@KjC_B^Gh@DvCr@d@BdAGXKzAcAt@SdBDp@Gv@D`@Nd@b@lGvIxB|E\\d@d@Tb@?t@Gh@Qd@Wh@g@r@p@`Af@rAJpAErA@dAV`Ab@tAt@jBjCh@vA^dBj@lAhA~ATb@@RmCeFj@lAhA~ATb@@PEd@?nAHd@Th@\\tAhEnTt@|BxA`Cn@x@pAlAxExD\\b@Rb@@\\ATuAvGh@B|@TxAz@t@l@rBt@XCEj@mDvVcAvGuA~JGp@GrBOtX@pAn@xPB|AWtFi@lHYhFKp@Zn@X^VLh@Nb@\\FXHDdDoAb@EbCpA^X\\Jv@CbBc@vFiAd@DVZLhBXvAd@~@t@bAn@j@xDpBhDjAdAf@zD`CnBbBd@p@f@~AJhAAjBG`A_@rBEt@tRn@VCnBlMZrCN|C`@d]H|@Nr@Pj@Xh@Z^\\XvIzFTLh@RnBL\\PcQtaAmQvcAQCOLEV@TFPNHPELc@lCVdBFr@HfATrLzCl@JtBJ`a@u@dCIrE]n@|AfK~TjDhG`EdEjKnHlEnDfHjLpBzEvFtQb@fCGhCiBlKHdBbBjEz@jBxChCz@PrEAxAZdCp@VVZjGGtEHlBh@zEZ|EPx@l@zAbOhe@RbADd@C|@GXQVg@d@KROl@I~BD`AHh@PTRHZ?j@W|CeBx@gEvAiF\\c@\\IjARrEfA`@\\z@bAf@|@Lp@^`GvCnNvApG`@t@~BpCXr@JhACtGGlA{ClZq@~K@pOd@xCnAlBxDtE|CvCjI`KtKjLrJlLrGdH~TpW`CnDrHbObDdHTx@BtCHf@Rf@XZVFvA?\\FXPd@l@x@dBX^f@XbBb@b@VR\\Nl@ThCTv@`@p@`Az@xI`Gq@nCYt@k@bAxJlTfTdTnUbRdAn@zKzCVOvAeC|EiHfh@ql@NGF?DDhCfJ`BfHVv@LHx@OP\\~A|KfCdGlC`GlArBvAhBbEtEjElHpHbQvAnGVj@jDdFfNfHhBvBxClElK{JtCdDnBbB`@d@dCjFd@zApCdPElDX`EEjBiAhDmAvBz@bDdAc@vWkC~COjBJ|Gj@\\A^O~AiBf@]z@WhJ{@tUs@z@IjNyCp@Kl@EnAA`H@|@HhAPgE`b@`BfBRtAHxA]dFExE[fEI\\B@@h@CF@Nr@z@zAtAbDhDjBzCr@|@JFfALpFDp@JnJhG~@f@lAZ|Dp@lKpBT@JF|DBh@J`AVfBx@lA`@|Bh@vNxCXJbAr@Rf@jAtBj@r@vEnEpG~GvBfBh@\\tDlBdC~A|AvArAfBxHzN^z@x@`Cj@nCm@XwI|GcB~@yCtAw@RoAJG~BFdCKrAa@dCUXcCmBo@Oe@Ng@BmBT_@AeAx@dAnGV~B?lBaAxKkBlKsJ~NoFlWsA~Aq@r@yAlBo@lAqBdFKPGlC@~@HXNRZHNAVOX_@NG`BBNDNNJRF^OtIc@dR_@tSc@vIc@|P|FdIxJpOzAhB~AzAvAhBnBvCfCnFdHvMfAfBVfAjGrK`BhAf@h@vExCXLb@J^D~EB`@XbErIfAbBt@t@pBrCnA`Bh@l@ZPPZNj@Hr@ElACjICt@s@DKfB@~BJhDBtIHhD^dCt@|B^dCh@pGt@nGl@jBzLpX`@dBj@zWKlLc@jLv@lDPjBG|@m@bExI~DpAXh@Zt@h@fBx@Rd@b@bCdElPv@r@vDfLz@b@LfGF`@JTNH`@HVRHn@IhEFjASNO^qAtHMTyA~@q@n@kFvGy@lA_@x@Ql@Mr@QhBCd@@pAJbBZbD`@dDTdA~BfDPb@FZAVe@dDW`ABf@f@|A^pBJr@Bd@c@lq@K|Bq@zEk@zBiAfDu@jBk@vBOfA?lADn@LFp@jAfBpArBrA~A~@f@n@^n@PRNDhACNLNVvBxHPh@T`@pCzBbBxA~AfBXTRFl@@jBIPBPTXhFVpCdBlNAIpDlWP|@d@zAnAnClBrD~ApCjG`JFZ?v@HFz@nDf@lDZzD@pBAyB@vBW~Am@fB{@pAmArA_ArAo@dAQ^s@rBq@~B[dBQnBMvB?pDFdAAjBETnBd@vBp@l@NHpALZb@ZlAD@Rp@jBBVCx@Sv@i@vA{AxC}ArDr@tA|@tBhEbETPpVpWhEfLCEnCzEfC~Cr@bAt@tAh@`BXpDZ~CEvDy@bL?bAFvATlCp@`CR~AKlBQlB^|CTfEc@qGLhATzDClAQnAg@t@aCbBQ`@Df@bBhCZfA?jAc@fDwBtF{CvLuJhf@|Bn@xAZjADnMgAj@Cj@@d@Dl@Nn@ThAv@jDnEzCpD`@TxAn@hEdAbA\\b@HbDPdABpC^dABl@CnAOn@FlCjAbAh@RPHPIzA@~GOnESpBm@nDBxAFdAvDxSdA|CpDvDf@fAjB|N^bHBnOHzBdBdXVrCVnBb@lChAvFZnA|AfFpA|Fd@`CRdBX`E\\jNZbEX~EF`DLtCdA|It@`NPnJn@dL`@lERxAjA`EL|@@|A_@tR_AnWa@rIC|AA|ATnK?`JExEYdFO~I@dDHdA@tAApEKj@Ad@FnCFdJQj@i@pAu@rAoAdAcAlAOLM@QbFHd@e@l@o@hAqCpF[x@Ip@MjC@v@PfATx@@rAOxD@fBHp@b@pBDt@EPMR{@f@K\\QpC[|CcA|Fa@xCe@lBmDxIsBlGgA|Gi@zF]hFUrEYhI]zDe@nDo@nCaA`CWLCHgAjAeEbGgAjBiCbFMb@@^RpALdBJbCApBGjCAfID|BT`Cf@|BvAfE\\|AhAjIv@vJ`@|Bj@zBx@rDTj@TXpAbAjAjAfAz@bDzBdAlA`AhBHd@Q~@Bb@FRhBxCJ\\f@TRb@Vz@hAtE|@|CNbA@bBPdAzAxDJvALxE?nACV`@jB`@nA`@bA`@t@fAfCd@|@f@vABTCVQESDy@VmDpAQ@APKNK?Dl@nA`G`@|CD~@A~@OpA]pAc@nASfAQ|AWbEg@pD_@rAiAnDOn@W|CYdCAhAVxAdBbHHpAUrKMpBKj@W~@s@~A]`AQr@O~@KfA?|BPhAZjA^t@rBnC|JzNfIdK~A~AfDfB|E|Bt@RfAjCbIlPtAlDbB~BxAnAp@\\vKdDf@DhA@b@NZXTb@tAlJ|BjLn@tCrBrGP`ATfBTdAl@bB|@bBlBzCn@tAp@|BRb@hAhB|AxFBXG`@\\JtBpAvD|@nC|@z@HT?|DU|Bk@xAs@pG{Dl@YfA_@xCs@hFkBpCsBtEuEl@e@xHcFhCmAbAq@`DyE`@UvGoA`ByAjBeA`@MHI\\C@FbBURG`CcC`D}@h@@nATJ?bAe@l@N`@MTWCD\\s@hAm@`@OzBBj@EvBaAl@IBn@Cp@Qh@]j@aAhAeB`AUj@h@r@|@XX^Xj@FT|@xA@VQZfBjEj@q@jAaB`@|@TNJN^z@bAbDjCnCRpA]VU\\Mh@Ch@DNR^gCSiGu@I?OHiFbK"
  },
  {
    "id": "2018-03",
    "name": "Paris - Beauvais",
    "strava_route_id": "11998198",
    "cc_link": "https://classics-challenge.cc/post/38",
    "distance": 105453.96179395508,
    "elevation": 1184.3244322611297,
    "summary_polyline": "_fiiHcn~LnDvKwJb`@a[}MoD{GqE`G}J{PiDrc@oy@x|@mBBoMkb@}UxXmAd_@aBtJuJdHgSlDaAhRgGrHcr@mI{CjBkLjTuBfd@yWcAmYgLeTmBgWqOiw@lz@pArDkQbQua@pNcQhOmQnJiBfIxD|_AqIx[kKlp@eUbk@bWvRiXddAwUxZwAvLyDU_Cbj@eXzNsN~LwMhRwRlb@_FrVwG|n@oPxt@oAlYjAzi@]jZk@hHuFlR{@nSbEl~@gBt`@p@hx@jAln@lTl|AqK``@xAeKyCk@gf@fCwBbY|@lQMz`@hE|UoEliArHfq@y@n{@hIz[_oCnjCmLdDwDgAmKgNcIpBg@le@|A`i@uAvAaAjVgCnNqCzBkGsAyl@vTgOcDgJxMyFt@{EtFmDh@mNl]kAtPwClLuM~W_Hpa@h@lEmB\\kDvJgDoAgDnGsBnLkGnI_M~ZwK|c@_GxGRzOgQoAgFhFqYzt@qCbDwDWaU}Zi\\kNwHkAoFfPcCHiCk_@aQePu^{i@mH{EwKyNiP_p@}F{^cM}^tAwM_@aEoFm@iFxD_EwHwr@bRuHfLkX|r@iPxNwF~SkHgMaHpCqKgKiFbAyQmFaKtIaDlL}ObJ_ItKsFrBqD|LgEtD_To@aHbC_F_CiEfEaGYeGyCoEoMgCeCaNM}@nHeKfQiM|A}DhGiEuAu@yKcBkCkQzBQqGaHiM{Vm~@aMbCoUaGgHtEsTbCoBlRcByJwJoIqAfCdB|Jq@`EeXlTm`@`P{MpKkLb\\gHhb@t@x@{b@`f@ke@lQeb@~XiKNo\\`N_e@dF_KxLuXbPeEmDuBsJ_Zyb@g^{SsZlDmNoBgOeHgOuNiCqH{e@uc@wIcVcK}LsNqIuUeFDwOuFwMvAmG_LgTeCuCuX}DoSkQoM_VkBsOnAkNqYiG_GaIsIuc@_Noa@iKyu@eIl@LePhLiYUiLgf@gE{i@qc@aHwO}LgN}KOgN{FmMxG{Mgh@aIoFeNwRaO_z@gLmf@kD_GnB{F{GiEzA}PkIqByVgXoDW}EjGGvHsE_@mCvBQxd@uBzB}a@{[yVyCoXmQiLsBaMxd@qPv_@cB`NoOfV~CpJaBdV_h@i]yM|@cLuH{YiIqb@sA|F}LbGge@|L{Cp@aJYmKeFyUIcXcQ{a@yXyKiMgNaPiJaY{GcS|A}F~DoQzBcBaOag@_^aHwKi`@uZyIPPjPcAdBmAmEbA}EkE_IRuH}Cy@kGhKoOwMgN_HvG{VvLvJ~DvIjAqPaJuD~@aEwGkEzIg_@tHxHnCvJt@_N"
  },
  {
    "id": "2018-04",
    "name": "Paris - Soissons",
    "strava_route_id": "11742129",
    "cc_link": "https://classics-challenge.cc/post/46",
    "distance": 136123.85106658656,
    "elevation": 1264.097160088123,
    "summary_polyline": "kxliHgypM{EpDuH_It@{i@qAmg@fGsKvCHfBm`Ak@oTmEm@Q_CKs{@{@iNsx@s|Gt@uAyYieC{HwTelBiwBsOiV}O_`AiAqEXfBw@MbE}w@|AwBs@uE~B}_@kC__@v@qYm@kJvAeDsDuMgF{w@gUbE{YvOkBcBDzA_[mvBmUesAkAZ{@wNvH_l@X}Lq@oHeG_QaBkOgWkqGi@{DsEF|@mOsDeIkJmCmCkIsIX}NwEKmE|CmGPmGkD_\\sSsm@j@}XvFmFl@s]}C}WiEexI_CgNgFcCk@_QeLfAeL_Yw_@kbA}@cTsGFoOfIyK_Kyf@{OgOiRcWm@eDcEaBaJ|BgFlMsFyDmMwCwYfAoc@mBy^hD}r@s@k_@wHeScPiKoJeQwZm\\dEeo@{Eir@`AuSiK{XbB}KuCs_@kRi^oDuUyKs[`H_IrMq|@Bib@rE}YzVyl@`DaR_@_I|N@wFuIvHsa@bIMtHgEvIiI`BeFuAu`@jBiFqPkf@m@iZgCmJiKaFsYKuLqCoIqQyAiOl@uPxLgs@lF{f@~EcKlEeZpJpJpI`@xGc^XgS`N}[qAel@cQak@gEaBsQzGc`@yAiV|Hih@cz@iK{IuDwGqE}RhFiY@}JwAuCqWoG{E{HiPkIuYSyO~Z_JjE_Fi[{FcKcLse@_DkZwKaWgMwk@iD{IeImJwFmQsCyBTaAuF}Be@cEnAyUxCoBvGmRVmE}HiHVmWqBoBaTsBm_A}ZyAsQmAmB}AfAyBdLuNd_@kEeAoQsNqGpA}JqBeQrDoR_EuBxEyApScCgA{HdH_Q}MsMoSiJyXiO{K}KcS_L{D{QcN@}CrGqLs@wCgSkLsAdDkMhB}LxToc@ca@qT`@_KuCcQrDcDlDwGz]}Cd\\oDvD{Kk@uBhd@_Jr@sAbLqWgRm`@mL_OwTqPmAoFmDySrLyAiJvEaH|HoVwHl@gVaE_KmJeK_XUgScE_MqLqKmFxEeBkCcExIiOmQwJ[oW{MjBwD|BsYoBeLoGcM]se@`WiIsLge@mH_H{JaU}`@yRiDcPcVwL_FyPsDiWe@sQ`Bgr@gBcEaH_@iEcFwZuLyI_JsWeIsTsFq]V_fAa^wWxCgMbYuQdKfA~Ni@~HmLtZiNnV{I`KsC^OzHmB`EuWeWmBkHkC`CwEaYgBPiBjHiCxBoEoBgCuGiAh@T`CaBf@mAeAfC_PiBcf@vA}AFqFzIch@eHqEwbAbEu{@ga@{DapApHir@bLgFxCaGwO}u@NwLnGgEeGoN}GaDyBc[mFoFkGoAgPuRuCYyS~Kwu@lu@_|@rg@}VvEqCuBI{FyQ{e@aVkWcLvEiHy@_NdD_Ud@uGzImFdYqEfF{UMgZyPm]g]}i@pc@gMnUoCca@mDaP_JaT_@}tAlEk@RkCuPqLmMw[dAgAfG|DlGeAtIkP|JiIbD@EwJrCzHvOIYyBsHf@m@mClH[jE{DMePdFeb@zOw{@uBaFxYswAnGkIiCTgFi[n@iNmBmVkHqFvA}RiAkLcMuXcDuFqJEgBkJcNgWgH~EqIkHiP{@mPuL|@qDe@gGvBuBiAmLz@aOi@yQyJmRaGxJcOlLkDO_Q_UsDbC_LlReThBqIfEoHoFeCzEoD_AcTvENjTsDB}@i_@p@{@jViJpEtEdEkD@uG|CyIxQtBfSuU"
  },
  {
    "id": "2018-05",
    "name": "Paris - Amiens",
    "strava_route_id": "12414992",
    "cc_link": "https://classics-challenge.cc/post/53",
    "distance": 166786.76532922685,
    "elevation": 1902.9690086510786,
    "summary_polyline": "mdiiHgj~L|BzGwJb`@kRgIiAxGepAtdAaOwA{M}b@}UxXkCrh@yKlJaKvAaN{h@gQ~@mLiO{GbOuK}OyIhYgBs@aH|b@gm@ePgMtGki@d{@gq@|r@pArDkFxFwm@nYmm@`c@}Qg@gF|[cS}Wgb@eFkCzm@_G`HpAfSmKyD}EfKqFyTiHf@{^k]eD`Ka^eXcb@f~AwTlGs`@rdB_]wUqkAa|AcBcCiJlQnL{d@{DcG{DnGeRgL}WrEuq@yZuCqXeT_l@mVoV{Fsh@sSiDcMhEuJ}FfAv[}NzbA}MGgLrNcK|CKnr@_n@tyAwFgCuAzLsN~J}GkAZ|HcRw@iQz[q`@sGoKp\\o@vHrCxHeCfM{VfZwQxa@eJnFoL_Cca@~g@mb@RgYiQmZpj@@nQmDfI{L`FcCxLyWjAiTvQ}Nrg@c@lZfJv\\vHbJhUdkA{Ojx@qBdf@gFvGaFkBeIpFgIdNiClQoQeC@{OeHqE{_@zJ}HxL_LdCtG~IZvTyMziB`C~\\u\\jG_U{U_b@kTujAslAuByLbIeT}IvAwBiF_A{c@aQvM_d@wCye@sZuEkNoPwIiAoKwF_CwAh`@_Vxq@_Tdd@yUtX}Nda@imBl~@wLs@aIf\\aTyOst@eoA{Qaw@_H}ADkM{L}KGibAhEwZsBmmAdE[}XsUuLy\\jE|BjBuDbEem@gHy~A}l@fNcl@x]aJlPaf@j\\oOi[mK@rCkOay@iJacAfOwQgAaJqQxCpP}MoVmd@q^}^yA_MuNcVgHkOyQgKbViO|qAuG`E`BhKiPzKqFaI{x@eYmHgIo`@nMqG_NgG~EgLuCiHiLa@}Hc[uCwUy^yYaKiLwPiGfFiQ}AkIaZkNmJ_UpOqEn[_@nf@{LdCeJqHHeNas@quAob@}XkT}^qKcB~Aoa@oLtEqh@aCcKfKmFxPeGkAkJgL{c@wFmaAyf@}j@}dAuTdBcCdWyw@|tAyZt{@oCja@sJgGmMtAem@pWiA|GgKd@s]r[mG_El@{KaNqEwUtA_ZnRcpA`DeE}DyApIcUyTg[ba@oa@_B_dAbMeYoSeNrXox@mh@gDfo@ohB~n@a`@jWiObAaZlPmA|FiI~BfCrWc`@zf@wbArFea@|J~AlL}NlQuSpHc{@z}AkKcJyq@gNqj@w\\_Rw@w[tK}MyI_FrAgIjXeO`OgK`i@uLxOcBrKyt@vVwDmC}AlKmZ`G}Ud^oAeDsGzEgz@{oA{s@}NkVqR_Lo\\aYpQ_[hDi\\u^_]iH{O|AqeAc_@QqmAqLwiABq^eIie@ua@qL_UoPgO[exAgd@kXeTiJaAkLiZ{Trc@yCs@}g@sp@oOkc@uo@sd@oa@}r@a\\yNao@uf@}LcT}Er@ot@wr@qKwCuJeUeBlDuq@qEmUeH{\\~E}SgT~E{MqBqFkIpIsNg^oWqZii@sFoOmJoBdRwG`@{_@gVwDqOnEu]}PiMiE~@ol@_x@wZi`AkRm`@r@kPyAmGiFKp@iK{G`CqCkZdVok@eG}A`DsXeG{ErD{AbN}k@vItF"
  },
  {
    "id": "2018-06",
    "name": "Paris - Moret-sur-Loing",
    "strava_route_id": "13482336",
    "cc_link": "https://classics-challenge.cc/post/58",
    "distance": 168962.99611885217,
    "elevation": 1725.0975121998806,
    "summary_polyline": "_fiiHcn~LnDvKmB`JnUxj@hEzZeKvVyWvI|T~{A{Lpx@_e@bhAdN~Oo@xJdLlf@oFzInIhE~FvMpEiDcAnI`OFnFoGtVtHr\\~^`cAaXF~\\v]|CeBtf@mWp}AtHlJaBjIrVtXuH`cA|f@dV|JhOlOh@q@u\\hd@iOxBgPtUcDrRzNzGnl@gBzTdH~VbBvZ`PrPgHdu@fK~^za@lExaAff@bByJt\\oZjGgRhp@nb@d^vEfo@jb@~FhAvD{K{@jOvIhIjOi^pGgBvhA`t@xh@pGtIhOfHeCnDbLtOyU`Ngf@`fAiJvOxK{Hzd@nIuJdCgLhH{DfEvHxMxBv^vWbd@sLvNc]zJ_Ine@`PhHmp@|Mb\\iCrf@|LyZdLwBjDxD}C~UzEhK`HzCbLuMnMvRlQrHdKzYnXe^tJs`@nEhCxCsIrNv`@vJz@~k@nwC~M{A`MmMpYcc@dImUhWn\\fIpW_Dr[zPzB~Fcs@lh@?p_@dKvDeMlHc@hHcLpBpCxMaTj]}NzRhLd[lBzLra@tTv^|I_x@Z}p@qFkn@jF}U[aOcEiIoGonAbw@gInA_NtJ{ElV|oAdOhQ~_@nOnA~KtgAae@tPm`@rN}Cn_@|e@rHzAzUjf@jNhEjDqIjTeF`]|iApNvaAdKKjAhLbLpEmBoRdQbClX~YbJzXDlOzVzs@zAr_@tHdOjIj@hLtM{@ldAjGrU~hAgBrMgJzHm^~VfZne@tYzTpe@zN|Af]f]zOhCjc@aFdcAmn@zOoO`BsO_B_Hf\\hMdHoLvKbXrDaAhAxHrQgg@lSuNne@iJnRgt@rFiDkLuFyCsL~PsXm@cj@nKyb@rCc`@mCac@x@_}@xJ{q@aByYqGeSu@ck@lC{HvH}BpB~HrKjElFix@xh@{HhOqVvr@vMfWeGnUbGx[jUlm@jEjLqGbUad@fWqFzEkGvcAvp@jUyJn[ie@jQaEnSzFvLyWzQgFtBcLoKqPgNio@gCamAcJoc@cD_q@mH_j@wO_`@qMqiAvCuRVy}@tJ}q@gK{aA_EmfAfBw_@j[{ChCmt@bRg\\lk@}aCuNomB}c@|Fo{@}UeNg^qZoUmi@chAnBcNzYmF~b@g_CbOuMrIl@mGqU`CseAmKgEd@cFnI{A}Ccf@zKcZ`DojAiEov@iX_c@hhA}nAbFwT`AcYpR}e@dCqY{AmLgPiRiD_^mSal@oCg}@uPqkAZgk@}NwiAxBmiBvOsmAcBsaBrJym@vE`ApQme@q^ae@iL{j@rHqAjFwtDbGeZkI}u@bG{hA|c@`UrZn@v]k]tF[tQgi@dG{z@lMo\\|E}d@s@eMlFgT}Tev@lGeJuDwP_HsRw_@w^sEyOqB_wApEivBhOuBlB_t@`GyCvA}KqHamAsLiRg]}`AhQ}HzP_ZtSiLp@}i@oDmJeYkAq\\q]wVyj@ad@olBuLeUk[sUsIdG}YcOe\\|JyJfr@bMlJaSnKiOf_AcKrX"
  },
  {
    "id": "2018-07",
    "name": "Paris - Lisieux",
    "strava_route_id": "13015074",
    "cc_link": "https://classics-challenge.cc/post/60",
    "distance": 214059.89142223148,
    "elevation": 1889.7557036533526,
    "summary_polyline": "kciiHkg~LzA~DwJb`@kRgIiAxGepAtdA`JfWiqAxnAs@dR}h@~UnO`n@oFpA~B`Zm`@j\\sSpg@zBlLgGxKuPbVi]xLbFnPoz@jbAka@niBo[vcApEnHhF~g@oAnB~HfNkSfg@i_@wXi^{l@kOjD{b@sk@_YcIqTlNaBbIsj@hWgBnTxCtJuNdd@hGtLmTl|@kHuCgEj\\wE|sB~Eb`@\\hsCdCdl@MfDs[bM~Kjr@eLh_@lBmJhPzG~Olf@dh@li@fLfa@iEtg@fFpnBwC|dBij@jc@mOo@oHoGwYbEkB}OgStL}o@_c@atAlqAyMdG_UeQgo@bFgTmI_NzAkLb[tAnoBoGhRsQdI{M~[uFp_@uM~WuF~g@yGtKgDoAg^n{@wK|c@_GxGRzOgQoAgFhFi_@jz@uYc\\aYuKcKxaAu\\bv@cAz^gInRT`IvHdE}Ppz@eArTbAtPvOl\\yW|d@_OpFb@`KoWzj@aGf[cPxRuOznAhA`ZgKbd@pG~`BbJr\\Zrk@~K|_A{Qt@FxcApEfNw@vKpd@bZvSp~@tGn`AkJri@{Ujc@yEdk@`D`Qjj@hj@vGvSJx_A~Ihu@uMpaDdBj`@gCpm@Ztk@pD`^sBpa@|FbbAdPhu@j_@zu@qFzBdMn`AgArXzE|`@zn@xpC`M|}@p[pcAgnA`q@{@pXgDxGgPlvAsaAz{Amr@pxAw@xTl^`l@dI_MjFxLeX~j@cCz_AlApS|J~[aS~UuIpa@dQljA_NqIe@p^nL~g@XpVrg@jY`L|W`b@ncBv@lZ~L~CwGlTzNnqBzPjg@vDsDhBfHrEgGoBjK~EvQoG`GlIpPhNnJ|KvVlHdq@eFfZaYru@iI|i@~@jd@mGb^c]dg@dIuDvOtq@zW`R~FzSkLjGuQtc@kl@tSab@~o@yVfq@c[ff@m]`w@sJzu@_EZmGzm@@tPhJn]dHvHlOz@bRt]zq@pt@xRvCgEh[~Oh\\Ltp@oJxcAfB|IfLzM{Eha@zGjQ`D`]gLho@Yv[uHp\\wSfMqc@jGfBvPad@nd@sDn`CgW|Bcv@iNuRdFpFtnB{SveDhHpz@eBzo@vOll@sCfc@zHdr@{Cje@`Bd[fUjaAgrBnpAgSvsCkXthApCfe@wO`t@s@xg@_PnBaa@hTyr@eA_Rnf@sBra@}G|XrM`XdI~q@fRhG`Q|}@hY`c@~Jto@Vz[pMvr@mAx_@pFlf@^f{@lG~w@bg@poDbCxfAyDx`AhAti@vSjtC~G~b@pk@rY~D~OkDnQg@n_@lBdMlHdKVtN|g@rp@rA_OzCpFJhK`JzWxVd`@lGvd@rk@bnA|Q`SfDrX`Qjc@hBrQkBvr@nG|_AgHro@Ot^_Hrq@k_@vh@dKduBhQrd@hHt^dLBp@jGe`@`RpPf_@Yd\\fM`g@jEfg@}FxoBmGnc@zA`g@zOloApGfSzO`fBhr@fgCkM`OlFnQm@l^rGhk@_Czy@~HlE`[pvBnDjaApBpO|DhCsCdGz@pRjCZqKjdAcLff@cD}BeC~GiHx|AiJbZoBhV}She@gNts@rKjGzYlh@k@jT~Klk@tLrJvQ`a@tHp\\qXzr@mQbTrH~LHpNxNbj@uDrZeGfAgw@xxBaXlXeEfLmH_@sO`OoItz@ya@~~AkW|bB_a@pQ{f@b@mLv^_Gvc@V~b@eClIqD^wS}Fz@rTkDxOsE~AeJtu@gP{KeG}Qae@_TsUkA{Ya_@gRbHmPgx@pNsIpCyIjMaFrGzJfCoF"
  },
  {
    "id": "2018-07-bis",
    "name": "Lisieux - Bayeux",
    "strava_route_id": "13096455",
    "cc_link": "https://classics-challenge.cc/post/60",
    "distance": 146129.38384239847,
    "elevation": 1488.9465068346587,
    "summary_polyline": "ui|jHqbl@{Ez@iEyEkM`FqD|GkA{FyMlD}JrFt@bTcbA`RaNjIij@tIyOrLwShYkZhOkCq`BcRnCyGyUqEuE_VmRqPi@}EcEiMsWqYm^eK_j@qXgr@eBsS{EcFyg@OaHeHiOuAuXlGyViJuTa@w\\_RgJiWiDy@eRlEeV}FkK{L_PvBkJ`HkPvCcJxHwc@pt@kSzKgIVoKkLKeNaAiB{_@bF}KkE}Nr@k`@cLiLe@sZ}NgRsSsAyL{[yV{GuBtFqf@e@_DwCsBgDjBaKtOiNCkMjJsId[qH`O}FjB{J}FcPtWqY|O}F|@yFhGcz@zDeN_B}HtJeQlLwJsIiuA`oDky@|iA{Ljj@aCeHiJaFiS`BuCqBaIh@iSuK_OOaHqC[qDiD}B{KqSwEs]cFeJkPlGcRrMyGq@mDpF{OrJc^aLq`@wXmSoAkRkFyMyGa@gGgAm@wHvBHtCoEfDyEQyH~LcCgB_Tfj@bChmAjOzk@bRvU|DnOM|FmD~HD|G`Mr_@`b@rs@bYzs@fCbKPtLvDzSnR~t@`Dza@}DxZHvPbChFcDrc@xHxWdBha@`FvJtNfKxc@djA~OfL`AnPjLpJfOd\\lRtJxGlItQn|@bErJf^~_@zUtDtRc]tFkBvC`IzBvRoRpKeBxI~CdPnWth@HdDnU|r@zPlZhLuArUj|@dI~NdH`_@h[~m@xGx[px@hqBb\\`kAtOpLoBtHvFvG`FaDvAl@hD~Tz\\jNxFhFhFjM`Ez@uOfDoCtC~Ct[vLrZfMle@|AB{AhKpA`\\fFr]pB|e@dBvKvBdHhLaBdCrBjA~EV`\\uBvQcEvIwI~@fIvGvIdAp@vFmUpTnPni@hh@hi@bG`SbF~Fk@bIdI~`@je@xw@kCvRmIe@mLxFz@hQoYuEZlCfAPm@fDz@xGtCnCtEsBlFbQfDja@oNnC|K`iApG?vG~mA`G`SpFu@}@vl@vAvo@eCrc@h@~KjmAfiApj@hc@`Q`JxNpVd[t`@|u@~d@zXbq@bHpYpM|SxXrgBvDfIrB~PbIhYw@hEal@~k@WnFgCz@kGfb@gA_Bw@oL_sAcfAeVqEyCgEmIj@uu@iOcEyByC{JsDoCyWwDgFtHwFaAIlAnB`AOjChA^g@jD{VuCeDvF}XuEgFfRf@pVoDxXgDhDcEp\\{MffBwYhhBjDhB_[dqAiCaDyK|^wLtYyAtG|BpAGrEkRrd@ep@zsBeHzGe^tgAkOpfAmFxLwW|`BoG~QmCvr@sDMaGlr@qAbq@z@rCvCTa@nYpMZdF_CxSbFb@`JvFzSn@lJyFtrCmA??~DgJB~@hAZbRtTfWKdVwA|GqCPeCvIoFzEwEnK@pFuKd]NjOzGdNiCbd@gJ`EsI{AeJtb@}Rrg@kDdX~c@~n@pJtTjHpj@y@fP|@tEiE|ThAvQxRdl@dDj^Yz`@xL~\\QhJzAhBiHzU~@lES~NkEtb@cFu@wErD}Xf^uIdQk`@tCQ|FkCxD|CfW`Hx@Thb@vHjVvAvLQrM{Ed[`@fWu@`TiA?KpClA`PyEgAVdUeBxAkAn[nNpSfF|v@rGzUtIdM`d@pU|L`_@yRjQu@~g@aMxu@v@bJfIr]IxIxPkBx^nQpZzE|OdK|M~Anh@ve@LvTkHdD|JtYlAjMrJ_DjC`Cru@gCb]zE`^x@o@uNn\\vDrIpGpCiO~UjLvFoBCcFnHoXrA[DnGf@oD"
  },
  {
    "id": "2018-08",
    "name": "Paris - Sens",
    "strava_route_id": "12859889",
    "cc_link": "https://classics-challenge.cc/post/62",
    "distance": 156922.0511920883,
    "elevation": 1172.9282328365694,
    "summary_polyline": "ab_iHi`vMPm]`C}S`CDz@sRnUQfB{FtEQNu~CxHcp@rQed@zBuRlPoWnW{@bKbJt]qHZiNfEgFfgAwv@|Bcu@sAoe@bFDxAqiAaQwn@kTmQjCcI`PtJi_@wt@dB_T~_@bDn[uZ_@iD`IqAjIbEzCjL|Ia@}Cc[dDgMqFeS~LyMcB_FzJeKjVdDvCtHnFN|M`k@tOzYnFoUtEmx@bScGwAqTbR}UrcA^lH`FbCi]|U}HpA{OjQ`DrXaTbFmr@hY_MlOucAlVgAhO`TpDOyGcyAiJqu@sh@ipAsAkYo^qAfKk~@tn@e}AgPyRkH}|@jx@q\\tk@cc@bZtg@`dAkYpZ~_@fGlBhH`QvLw@DcHjm@~P~iB_|@hM_YlBb_@~CrDjt@_^pBz\\tZxCn|@zt@`k@{P|i@fe@tKzYno@bNhBbJpIaE`L~CuA}XnHi}@lO}^|C{Ub\\zF~HhMjNbDmPg}@|e@gqB~NyRtp@e|Afv@{t@r@aSvg@oHcEwUcJyPvCsMtF_EcMuv@hBco@_WapClKuMvDk\\kHaf@jAcSaDeAaJ_fAhEgN_Cg]yS_y@xXuGxKuSdO_KoCos@jGg@rA}IbGkDmCsPxGwGaa@u~@hdAkChlBbf@jNjWdMzEdGxg@`KbXjDsGlLdJt`A_ZT}\\|V_Ex[oi@|UiVqAaIdYwOzAyWdl@iBzV}gCfY_tApF_Jz^y}AzOkXhWeQbEka@xQq`@fFa`Avb@iNhIfHj\\dC`~AdC|bBuXtBgeAjO{AvGiNwJyzAtIcr@tAmEpHZJiyAcCs\\~p@clAj^qPfYRNq\\kRcp@|RnS~j@{[df@kAWuDpMsHrb@sz@|Yg_@hZaQhRpIrIuYfVofDrFcQxIaz@n@sn@xXg_CNk^p`@c|@n@u`AjLi[hPuLnQ{c@xr@emCl[ao@jLwb@h[sXzJic@n^w|@vMup@bMoTlRwMdBdF~_Ar\\tWrsAhZn`@mGpMvHhCb@cGdUeMdv@}uApa@ug@|qAebAj\\qMtAp]`KlYTnl@jPhkA{C|d@tEdX_FfTeDxAhDzJ]deA~ErZ~\\jNdQ|e@_@vPvE?pCmF|_@wHxK}hAtSaf@xFiEnJs^~ErYvLoDnr@vh@|Y_UjMeS|TpV~IeEy@_|@oDqKjCiFU_Zn^}@jEld@rZaIbRjWcAi{@{Gii@p@_c@f[iHdAaHj@rE|VcGxBsl@wCwRbDqMcJutAfB{j@qm@sSd@_Eyp@c{@iMg@wCbGcB}FhBgXtLzCr@}[cCGB{PyZzD~Dbb@lID_Etq@bBbB"
  },
  {
    "id": "2018-09",
    "name": "Paris - Dreux",
    "strava_route_id": "15535175",
    "cc_link": "https://classics-challenge.cc/post/64",
    "distance": 146635.26115979147,
    "elevation": 1365.776459777822,
    "summary_polyline": "kciiHkg~LzA~DmB`JnUxj@hEzZ{LlXgVbIvWtbBeDj`@lk@~e@dDb_@hHhQgT~_AqNsBaE`RrF`D`CzRbR`E|UnZxVyFnChLbZf\\`UfKjU`j@~H|_Ajn@zv@f@zz@xc@sNhDgQ|TwC~SpPlFvj@eB|TdH~VbBvZvO|OfApShMgBvJj^`FxSu@`V|GjBmCzc@hh@xHyB`X~JlF|AmV|G`@~QyeAhVx@hCwHhp@nb@vdAxUSnIhIxG~FhAvD{KcAjNxIjIy@dM~OfMcHzj@oBvy@cVfoAdJrh@pk@vVf[~u@j@lKoGlb@~Rph@rFfj@`GnDD{Onc@fFrBoDfIfMhFeJzECfStf@~O`KfJxc@j[oMtQlC|Ro|@pD{Cni@a@jb@|OpQjSl@vI_m@tpAe`@nrBkKt`@_OjW_Ejc@i]nfBwX`b@c[z|@pBtFvEkM~d@vi@na@mGdYpQxHgDfBvH`ElApMrjAPzx@cClZiTtbA|AxIrKpLtG~^]bPtEjKhEt^eClSrLdMvFc@bXpQn[\\|HnNbBdNnWhDnEbT~FbcA?df@rFp_@pa@~MnFmPhDNgElj@iS|g@aH`a@qWl]gM`g@sExe@}Tf}@{^sSsKsPgh@uG{N{Ny[m@u^pnBbP`LsQnu@tcAtVnXr\\vW{MxPgb@nO`p@`DiO~LaOhn@}g@`iBkn@zQgMxo@iMfd@qa@hN{@`Nu\\lX}AfVlR`C}PtBfAvLcXjPzIcDbVoO|CP|JjL`OdHti@pj@bzA~@~g@yFdmAjSiLrFvHf@rMjt@cGt]fS|v@f`AjZXda@~Xvi@vkAfFfd@mBjv@vKoTjIz@`@pG{Nhs@yKxWyCzVqN|Q_Edh@kH`HvDjAOlG`IlDnDyHfQpOtXpDh|@b]|z@wEr]sf@zHcH~DvJgUhdAkEri@nBxm@xF~SoEpNaK~oArGp|AkEp`@pAj`@kCr\\pLjUgAvRlGfEyGzjAsZhMecAyAqHhK{CpYbG~m@aPxNwRbo@bKdOvKW}\\~y@wMPiNmOyRbNuNaQwnAfb@af@jC{K~TyMqD{LlLgw@vLms@zi@aC}H_E`Aq_@bZq[ja@uFiKwAbPcIrS{[tWsGvO_YnYyCjN{H`GvD`D_@~I~HwE~@zGt\\pZpBfIoBjKfQib@|OpJtGlHuFlRgOtQ{Ozu@cGjBaDvJ{GjDqOkOoBbEkGj[y^~dA}TrbA{l@hsAsbBb~AeZ~K{y@pm@wi@zt@bIhSlGpk@sCdHxFnq@mG~JUxJrDjClB`QrGn@~Fhx@xNve@]pLyr@pp@_H~PcFdCsH{QaF~EbE~Rqo@iBuIdNfBlNmB`DqElAqOeSoK{BDsMtBe@vDxHfHmDvJzHiH{PrAmG|HzIpb@{M"
  },
  {
    "id": "2018-10",
    "name": "Paris - Villers-Cotterêts",
    "strava_route_id": "13388772",
    "cc_link": "https://classics-challenge.cc/post/67",
    "distance": 111467.43106883836,
    "elevation": 1136.8861502223679,
    "summary_polyline": "ab_iHi`vMPm]bCkUZqn@nEqTtN{UxE_R~ByYBco@zGww@oPch@Pko@ShPdAbCgh@pCaE_CyK{PgEgSkDin@zAgX_@ki@\\gUtKubAWeQgNs^ySaIgJ~BeHpFiJlPwb@dJkPsCkMeNsEiQmDm{@sDk`@KcOvCwc@u@oGcEoJiAuMGm_@fCoh@Y{VqH{^}DyBuF^y_@zPsFqOcFse@fAsYiAm\\bCqReFug@t\\eJxLrCxA}LvCdBrNc@ZiFnDaIxCuFlDcB{AysA~Gim@kG`@}PeHoCwKVi_@`IkBhAsEkFylAVu[oCeZtEwg@lCaAhTrH~Aa\\m@kKl@ms@zEy|@kBiKeJkAiGiHyFcWmYpGuWmJgBcGcG~DcSxD{GrN_LkKaJwTkLtCo@cDgUtINyaAcE{v@}CyWq@m[cGu\\w@sn@t@uc@sGegAOi[wDaXcHiKvE}EvFqNmMsXkNcSfEah@_[qv@EwGhJyXyGyCsBkDlCoEkEkDcDjAeB{BcByLcJsDuCpBHnE~CtGXtEkBrMcEfFiHaDy\\aAZ{HyA{CwNkJEwI{DsEkJab@cKhJeGc@sPvHmk@xF{GoAss@~Oed@cGkXp@iAsBm@mYeBsGmC|Dj@lF}OvDyEzEuGxMcD`OiAzPH|bAbBtHmB~G`@lBtJxEkElSaInCiGzO}GpDaNVg\\xO_g@`H{LnLwYpB}l@k|A}@cTmGDuOhIyK_Kyf@{OgOiRcWm@eDcEaBaJ|BgFlMsFyDmMwCwYfAoc@mBy^hD}r@UmY}B_NwEcJcPiKoJeQwZm\\dEeo@{Eir@`AuSiK{XbB}KuCs_@kRi^oDuUyKs[`H_IrMq|@Pef@bE_VxEmLkEiGaCwM_FwK{OeVkjAkWyPgJ_WqYuHgS~IoScVyC}RwKwv@}IqKeEyHuKoK_IuPob@w^or@i]of@sMoI{KZqSgE}MeL~AgUeAcRiGuf@}L}a@w`As|@}AcJyIRdBtXc[hBg]qi@gYvJeh@df@aF~MgKxE]`_@oR{LuHkd@kZkt@{IaOM_W~@sHsBi@iSlYsRtMkEbMoCMaCtC{IuFkHnD_JxW_FvB{GfZgBl@gI_FgQ~Kac@yWsOKgGgHcPnAmw@wJsM_O_\\sQkLo^oHiEkJeP_L}JoRbDc\\eCcHqEuMmUaHaCgAiWgO_H{VhD{`@uJaRiJHwIlKqc@kAmuF{hAe`GsNuu@mN_`@cfA|a@aVxmAeMxWoK~e@uC|FwHiPmA~T_AnCaEkIYjA_@nStEhC|DcIzJzHnEeIwBcE"
  },
  {
    "id": "2018-11",
    "name": "Paris - Feucherolles - Paris",
    "strava_route_id": "15867794",
    "cc_link": "https://classics-challenge.cc/post/70",
    "distance": 72545.94617464495,
    "elevation": 1132.023290746467,
    "summary_polyline": "ofiiHko~L~D~LmB`JtFtSxMbV`AxQfC`H_BrEtBlDxCfRtKdWxBpWzXf[xa@|E`Crk@gBl[{EhQsObYcH_AiBxNcMx]aLpm@`@fFlBrEpOhOvKhDvCzJtLnH|EfSnDjC|dAoSmBxPmBxj@eJxa@gLvz@PpC~GjE}AzIrVtXuH`cA`J~I?p}BcObWp@pMoGh@NjGeMeI_GP}FbJaa@M|EfCPdC|F?hBr^kEsJsDrGNrJlCbMmGfYeHth@oI|O}AnJX~BnLlFFrC}Qfm@dBtH{KdJsF\\vAdEwDfIhA~JgOtRsHo@gDhe@jBzGpFd@mDhIgAbLfOxg@aIzNxAtH{B~AlJ`TpBxQ@hN}El]xBz^tF|A`@bIjEISfGrH~f@y@fPoMtXrX~h@s@lL}Jj`@_T`b@uJdp@qG|RoFlZaCxC{D`RqGfHmAjUmH|j@xBtFnBz[lEbHlIiAdBzLaAdJ`IvH~JlCpDl`@lYrlAvAyPfUo}@~E}J~SlJxMyC^{FkE_x@xK}`@fOuHq@kMjJkXlTeV~GuPrIog@rHiPnTwZzM~A`KoK`@sKeD{CHkM}FwRW__@gDyYs@ua@PkGpMic@ByCgAkF_c@or@qPgLi@{CqCw@eLgOyLgYod@mAjByxBqn@w@cSmRyBcRmF_OdAyDpFBpAyEiMij@lEu@zKeJeBuHiHcHoBcRXmRrIsN{BqDxFqI~Bi_@kHwPN_PqCwO|Cce@~JaKjUGw@qBqE{@JkBh`@l@|FcJ~FQdMdIOkGdFNz@}BaBePRgXbD_A|AcKoRu]f@kHqQ_Y}WuOsTt@{HcAcIeGtH{]mZgXyGyUpKmHmLw`@rLktA_U{l@fBiIKmLcEeUfBaVpC|BlGeKtBqJlCjBuEoKYwFtKqo@nLu[|BeRecA}x@M_GfDwLOmKwOi}@gE_e@`SiGzHiL`GaCl@eCu@iC}CLuOqQiH}UgVke@lGqc@hF~FbC~G"
  },
  {
    "id": "2019-01",
    "name": "Paris - Compiègne",
    "strava_route_id": "13388990",
    "cc_link": "https://classics-challenge.cc/post/73",
    "distance": 113382.53823762525,
    "elevation": 927.9938701070852,
    "summary_polyline": "uzliHghwMrBp_@m@vMvGTU|CmLWrBmARuOi@aLsE{@sAonAsx@q|Gt@wAyYieC{HwTgvBsbCuEiJcg@}`DlAw@eXmiBuCaAqEwP_\\izBkU{rAmAP{@wNvH_l@X}Lq@oHeG_QaBkOgWkqGk@gEqER|@mOsDeIkJkCmCmIsIX}NwEKmE|CmGRaIwCeWiTyp@j@}XvFmFl@a^cp@zDmRvFwc@rAuRvOqOeBk`@sc@sf@qVqBA}BjOso@nIwBi^kOuPaH_XQ_h@sEyk@@}r@fBoRq^cQaVuOyGgIiEy\\ZeKqHrFcCpGgNXeM|ZuF|AqElKuKrIuG_S{@_M\\sEvBz@~BmMh@g`@aXiW{GiUeEv@s@sDqW{IoF}YcDuH_BlI@`YsA`NyMzd@aEj^yEddARfK_f@}GcIaEqAkXsKkJ{NgFaYGyF|C{\\zAsZgH{NNyHpIOcEeE_EiF_OgMcRwE_S_H_FqDnMiGyGaGb@cBaE_LfOqQ?uKhLgM|Uef@z[kXvXyLvC}MfKw]hG}GgQiBLqEeJ}QJyEua@sUeh@sYwe@o[aX}c@gOyHkHsIaU_ZcNcJyHeJaPoScv@kL~EiROqWtDqImGcAgIkAc@kErH_s@vNa@nPoI[}~@tMsDyAuAaFkFmEaSqCu\\iUqKxH_CvJ{EeBj@tR|Ihh@mBtWwk@}AqbAfAiQ_NqRqI@sg@gPku@uCwAuBeNkBgDgE_f@mEoTC_LqVqMsGh@yVwT_YaI{Gqm@sEjB{Iu]mIco@aHwYgh@s`@Cqo@eDuCaHY{AyDd@iBvDr@xIoCIaOePnB_^`PuYfUyf@_CpGod@BeBaB]}AwNiEqA{DaKmIuH}G}LyYmPoDqIcMiLqMnA}M{AaFoF{OgFuLuY{R}I}[_DwJpGgdA}_@OeDnCqHcC_JgGcK}Jk^cIvNwW|EeWwyAaLqJu@wFbAuClLqFrBcF}DeW_NkW@uOxBsIjTcSt@oGyNibAgFaqAeOwuABmMzAsHD}i@xAg_@uBmH_E_BwJiQaFhDyA`MkGvD_JzN}MxLuEdJeO|LyX?eGzB_MnNaIvDkc@aKaG`@cLlOuNp`@eVtsA}Lr^eQhSgIrQcB`J{Bzr@jM|DbKkNeD~m@yM|s@aFjpAYn`@`B~Ll@b[{@xS_Vzp@aa@|zBkBzv@sa@vk@]nc@t@bBcVzXbBzCUtChA~CjDxEwFnHiLrEgEiOTaEoAaF}AjAoEaSiDyHyCmA}I`KdRfg@gDlDmEgIgB`C"
  },
  {
    "id": "2019-02",
    "name": "Paris - Vernon",
    "strava_route_id": "13392397",
    "cc_link": "https://classics-challenge.cc/post/74",
    "distance": 128077.8804259882,
    "elevation": 1665.7435303358686,
    "summary_polyline": "eeiiHel~LtCxIwJb`@kRgIiAxGepAtdAmLM}GoPoTiy@ax@ytBiAyLaAUc\\wfBiMcj@aGjIcD{GqbA{~@cNcF_OSqd@pPwHjIoFnLuV|wAoHvo@yBba@m^cH{JoJig@hi@qJrPcTs[{BrFqHhDeJoH}CGsHnRsFlAmGpRiEcAgBhLa@~R}A`C|@jCqAfN}ArDy\\`XsDfJmFnDoGlK_MhD{IyA_JpUea@uN{SkTePqIsAwEyWcEiQpfAuF{VkNoR}OlToGnSyPhSyBlGaMr}@kY~k@o[q\\}J__@oDiG}BUgHtEeMYs[oHoF|@oW}_@gXcDuo@xKm_A|bAmZjUhFjMjJlIpDnc@jHx_@s@lDyG`EiKzj@hIh_@oCzLSfUbFv^}F|YsN~J}GkAZ|HcRw@iJtT{HbG^nCjGrC_@rTc]gE{HfKmGxAkB`Dc@xHwH`G_NhSaBlIkJdRiM|IoL_CwOtWmMjMiZ_AaJpC{SaQkDG_NxZmKvN`@jK_BzJqHxHwFv@cCxLmJvBiKy@sPpJwG|N}Jh_@c@lZrE`JrCtQrCb@bD~HbGdUt@|SjKtZBjD{Ojx@aCbh@sFdFeEwBgDhFgBm@oLvScCrZwBdIg@zPpA|MtH`LaCvFaEEaFnKeEhp@j@xQqJqC^`LsAvFmCpBeKmDcL`CgP~IyFvPfEfRjCbDeIpUsBjM_@z]wDvR{G|KsHfs@bAtRyA~KpE`OhMnu@bJzRVbNnG~f@pAlWsAnNoCfG`AlASzFeIbJ}BdGkCsCkB~@gBvJsI|MsElB{GiD{F~CiEvIaNtCJxR_BdJlAlQO`]gBbJExSuEdO?vFiCtHoNrDu_@l|@kE~Q}Ydk@nGbQoBlRcByJwJoIqAfCdB|Jq@`E_[hV{f@pT}IhNaG~RgHhb@t@x@{b@`f@ke@lQeb@~XiKNwa@dO|@jo@dB`QoB|j@RveApBb\\fD~Q|Ctn@uAvAjBJpGnLzAbHmEp]wHbGeJpSoS~pAyIdY{C|Bcb@bBwMfJia@dQ_IpG{BzFoNc@sDtC_ExLmC`TkDdHFxReF~KoLhn@sPsN_IrIoM_ZeFnIwAjHQ|JdBvSaAtHac@nQkf@il@pCvr@kDv_@m@|v@im@xVeK|ApGta@lKoCjHhGbU}QhV}IlI|b@jLqIfHZzQlHnRp@|H|MvBsLlH{@hGfBfAhAvAlMxIhKbWdPnG~P~NfKdVf]lFzA`TgCrDjEuIpo@sG~WcEbk@wClBo@rC}CC{AvFx@hIeAla@tGfn@wHv^SpRjSxA|g@bSzS~BrIzEfVhWrYhe@f\\f^dN`\\vHfHnVtc@rBdIzw@hMhWxPzi@|O~LmC`YqNfMuI`DuKve@lDrQoDxEfHdSdGyA|XWnn@_B`Ek@~NcDlS_EtK`HlCgBdDm@|j@~DnPRnIk@~WoC~SbBzWvE`YfP`XzEnMNn\\xAzQfNzYv@dG|OlEtVbTbF`Kpa@nRjg@tAve@iMwBj^b@nVjE|SrIlMdFtb@nEjF`@vGzg@`fAfMCnSfLnB`ElCrUjMjVhGr`@zP~j@~Ipw@Pxn@bK~g@ZpJxMn\\tNbL}ArP{ElSpH|c@eAff@~Ur_@rCeGlGpPhAmGpChE_F|IbCtFuAdGpEtL"
  },
  {
    "id": "2019-03",
    "name": "Paris - Chamarande",
    "strava_route_id": "16851141",
    "cc_link": "https://classics-challenge.cc/post/77",
    "distance": 131660.67172479277,
    "elevation": 1492.6086512293125,
    "summary_polyline": "ib_iHayrLzGbGnEyKrJwDtI_Ia@aq@lB_SlBj@lF_L`ItIz_@`vAy@dD}JbFpI[hBd]`{@tx@jBc@fIaMq@`PeBnF{F}CgCpf@gHdYoBhAkF`a@iE|O~BhHjVnI^fWdBmVByUzFmIxUyPjKxa@sP`{ArE~KrKfG|K{L~MxCnO{@|X`n@zFMj@kJlCiEQlNqE`K@`HxHw@rK_LnFz@fJeK|IR`CiFzWjNbOfPgAnp@zDsAtBhEWtLiGtSm@~\\xJnOaEnSJlS_ErLrWn\\tInTUn`@yCg@mAtBdb@xVbg@dGnInNhEqClCbA~BjJaEfIOjf@rZbe@lEz]hPzQjGlMvPl@ZsInLhDtIcIbGIbJkHlIrCzCfVrDrE`q@`XhSbErIeAlCzIk@dNr@jMdBtFfMrOIjHrB|FkEnAs@hJrEx|@sGdqAt@fw@zOQtFlHlM|BhL~SbE~@lG~HjEvM~KbQvAzI~DdIdFjCjPPdGhQzHlIzC[|DzCdK~^y@|SkFnb@r^ru@zE|YhKz\\dAne@dFhV~[jRlJrB~[xWn_@zGnLaBrLfDfOqHfVgEhCuCxChCfOtBfFqMxPeFdJqf@dNiVpFgRr@a_@bBmKnCaB`Y~PzWyNlI}K~IzUxJ|ItBnGtTn\\|GlE|BrInJsCzOuWpE}Qhe@}cAtF{[uKkJtHyRcF{Gx[s]zJ{@dTmQzC|AnXeLn]}`@vk@qg@vGeNpTeOlEsInAeHiAwG[cYjFu`@nKMfG{CDyNuBmRyEoRq@aTpDI~M_[MoJhBw@tHjIRiLaAsHrEwGnXfPza@yBfp@q[fAcI|DqEYiDtAlCmBhGRtBvAa@`B_G~BrCt@kAsAmEp@iHo@sDnRuIvZl@pDbFuAd@AjNlGbMhHl[|LhP`H|DbV~[|VfJjF`Rjp@oElW~AvMeJjFo\\pAw@~VfZdP~FxGvE`CtHlGfAfHfSrKhQjStDvXnZbI`Clg@qDho@k^zd@e^tBaG\\eJwBuDViBdCfDxW`HrFcLdAEjK|WfDmARtG`B^rPwf@fDKdNiNxGbAd]}LzFoNzJ_f@zEqBdG~EpKhXbG~CsAdIdArD~XjHxIrKpBfJhAb[vQdd@dLrLrY|OnEtHvDvQ`GhHpJzDlIlXpKnPbFxCdOkF~El@fEjEjKtZvQqB|F~K|OdMx@fCtRwJtDvBt@_HmBkHlEbDfIeFnIiTvUweAfLsy@cBeRgGkKoBeIfCyVaAiEo@|Dn@}D}AsOHkWzI_KRu[zJ_^o@yGhFeO`ByXfDmLrMiDpSdIjHuPmEs[cHsUmC_SpFcd@~GsQwA{SbAwWs@aVzByOaHmZiHoPt@gB`IdFpB}P{BsFx@uZ|GkJvUeFlG{Kf@eJrEaArC}Td\\rC~TiNqA{Jb@kInVaHbEoNe@gFwH|AeOsRuMgl@i@qFv@yNuDoy@uJsf@iE{v@qGoc@iNm[qMcfAOaFrCoPXm~@tJis@aAkV_I{g@eEugAgd@cDab@`TuMrCsh@~Aan@~K}eAmLe[jGgHkBeCeF}EwBaQ}WcWaz@sHeNwWqXoQyBeYpBmH_Fi]aAsDdVnFdq@iB~Yl@`O_Gz@uEdJOfJiGnAkBxPsMrU_KvDkMCc\\wGs_@lEaFq@mE{KkDyCgFnToThNap@fPmYrMaSwH]fIxBdREnUgAVwBaDqB_JeE}FmJdIqGzKcEhX_b@~gAcOlUmXyNaMeBah@zCmQf`@iPfg@qHlHcQgRyF{Xr@iG"
  },
  {
    "id": "2019-04",
    "name": "Paris - Château-Thierry",
    "strava_route_id": "15889409",
    "cc_link": "https://classics-challenge.cc/post/81",
    "distance": 155468.30273930452,
    "elevation": 1408.8797547591118,
    "summary_polyline": "ab_iHi`vMhDoaBvEmVnU{h@bC}iAvGgw@fMeXfVp`@vXin@_A_IzHwJzh@uMzDqw@j[mn@o@qq@dCsNmNyFqLcTdn@swBrPzHi_@wt@dB_Txb@jJpCxHv\\ePsA}FfOyH~Kv@}Cc[dDgMqFeS~LyMcB_FpJcKtVbDvCtHnFN|M`k@xOnXjFcTtEmx@bScGwAqTbR}UrcA^lH`FbCi]xUuHtAcPrQzCvYcUpCmN~V}DppBx|Ab[~f@zD~]|z@{oAbVnEzWkNv]`E`KeHvRpXx^p@_EoQjHyDbJQAfDzJnFo@iLxLoWhG_g@|FarAjIop@xAkeA~Heh@nBoi@xLau@`_@}c@uQuR`B_MiGwKvV_{@zOocB`@kc@kEmt@iFgJeD{v@oGuKgOst@k^aBg_A~T_d@mKHub@wRmeAcp@sy@ws@a`BkPwRlDm_@mQsjAbFem@eAeMvCcKzMwMlcAo_@d]g_AlEu^vHkGs@_m@dEef@~]ccAkEgC{Dyd@ga@cn@bFyJ~GjChRkFfV{\\`[_Cc@}JtJ}i@rFmBdX_gAvQs^hRbBpDyHtSuChIpCpJtXhSgU{Pw}@wCwzAcHea@yR}h@c`@n^eIdAYib@iLifA_FcRkKkNmJ{h@{HCaF_\\oi@sJ@qXaGcRcC_o@wOcb@iUuGmLpYeBeZmPwi@J{VjLsCe]vT~F_KkWq{AjFc^`Csw@eJ}y@uMw[{P_@{WvQ}z@}y@{Rof@oIma@{PqVmhA}CUmIcHoHyJy@f@gr@fIqr@dBok@kSdEy`BgNhU}gAJieAdC}[p_@ytBlBor@_Eym@bAwNgZ_Za_@yO{Xke@m^aQwMqQaFkVyTpHaX{e@gUuOd@oN}DcKoLeCkEaKaOrNsTpBsFtIyPmCR`Wgl@pAki@pOwEaUxB}ZqHi^mXq@gPeIaXbCsAaS}H{EjBoJ`\\ia@`Cwy@gy@cn@kC{JaXkRi]lBqGyG}a@ey@_a@ocBiFqIgQsGe@yKqIe@yh@sg@i_Agb@cNaRgQqJgTuH}ZtT}\\wuAsTjkAw_@~FlFig@y]hLbIiXyDkQod@mGyNpN{Y~Aqk@{Sw^cZaPe[cJmd@sJgQ|B_[sFeL|A}G_E_IiH_yABs}@bDu[iXqn@`BoQsS_dAiEsf@j@g^iQhUyNna@qZjS{HfK}@zJgz@x^ic@sD}MrM{@xIaLie@ix@kkBwVmYqi@_[_JmS{E\\bCqKs@s^{Y_Hyg@dIyE`Ed@xD}Z~B}`@bkA_@dc@zFpi@wDoDgh@dIy]kOoKqUeCot@}RyYZkOqKgf@vFg]eA{G{b@o]ym@miAkIohAmEjBH`HkElFcH_DoFuYW{FjE}BnMhDlGvRrDuA`AjG`HqK`JcBPsUjHqD"
  },
  {
    "id": "2019-05",
    "name": "Paris - Rouen",
    "strava_route_id": "17875054",
    "cc_link": "https://classics-challenge.cc/post/83",
    "distance": 169350.58768539494,
    "elevation": 1793.0138422206771,
    "summary_polyline": "kciiHkg~LzA~DuHj]{IkAiRyHm`@au@{oA~fAw{@_~Bso@waDwFzHqoAqkAuQsC{XjGuV~PyKdVySppAiLzqAw^cHqJoJor@xy@aDuDz@fDyZzl@aN}EaMpPoZiBqEzWy]fYgS`[_MhDgQkEaE|Ww^oMug@ue@kn@cOyOtb@gn@jcA{NlbAkY~k@o[q\\oQmg@_NpEmn@yGqXs`@qGi@cK`z@p@rRtDhEnEvWaR`EuJ}FfAv[}NzbA}MGgLrNcK|CqFtXk@rf@ue@dlAoFqCuAzLsN~J}GkAZ|HcRy@iQ|[q`@sGqKh]m@~GtCbIgCbMmWxZyOn_@yKbHaLgCk^ff@ke@pAkYqQcZ~i@cA`XiPpJkI}MfB_Iw[uDeIoH{T`HmChc@iMp^wV~\\qNh]mQ~BqRpPaRPiCnDI`MkQjWqN{CaGrI}U_FaXrCqZjRaXxhA{HvObGpZVfTaDd@kCbQc@vY~CdL}A|Kmb@`x@}Dx`@iMle@uDx`@tFbFx@~U_GxIkBh]gFrSkGpFsB^sGgOwIhh@k^nP{IjNsNgFyEndA{Tjo@xA`PqIpeAcYp]oHjk@mLnRgGz^z@nhA_Hn\\~AlZoExKtDpZqCdo@xKf\\MxSzD`LeUpx@jChR~HtlF{AtqBxGbo@fAlq@xM~UmEp]}St[oS~pAyIdY{ZhDzMhYbD`V~Mr]~Kp|@bSbe@vIfo@`HtnAcClMbB|\\iLpn@{JrCwJtXmR`LaN~QcQrf@aPvCiRphAcEbk@aMtNKvk@tGfn@mGbX}@dYbsAzZ|^f]ly@dhAlp@rpAvOlL@`JoXpj@xb@xInNxe@_Kb}@sQj}@q@|u@jDnOpHdGdA|JiF`c@{CbeAxDfn@eLp^o\\lgB~@bn@`EjJuPr^hAjB{EjVyPh_@Pt]gUvhAo`@zt@jKl[`DvgA`Qhv@jIqBsG~FvJvz@ZvgAuCvJiWwC_HkQoKsHog@wGwEwJiE^tBaNgTwLgFpDeEnRiY{@cKl`@}d@eJqNbMiMi@`@~Mkh@vEoI{DoXnQ}]dGwWgGgT|o@cEhb@iMjg@dDvEdG|{@gVzOrE`\\eU|QpFdJkVnpByKf\\qFrc@iMnNx@pIwLbFld@nu@jEh|@t_@d~@{PtLmX{e@wRqKuLc[aL{@ma@|`@yFxToh@jRgHtNkLzCsOxb@oa@vj@}Qrk@gJnj@yLnQkDh]_ZgAkGnc@q_@t[_Dbm@cCjB}X}c@b[liAge@~SdQdm@f^vh@n`@voBvNpCtCrRoClj@hCpS}OdDoDgU}GxKiIiCxLfXwEbHzArIiIxOt@mVgI_YgeAyTch@~x@wStTgLxDct@~hBip@dc@cY|a@gVzAiBaTwGaHcOfX}DyB{Lt_A|BhOErl@aApDkG{A_Hja@iEvs@yO_GqKz\\k^|bCo@hLlC~CwRld@zF~KeSjoAu_AfdAoHb`@mRvUyD`Z_Rz]qBoSfC{GgBaLjB{q@uSf`BaSv~@x@jMiEhf@kGjA}CtIiBbOxDtCaBtDsP}JwHyk@uFs@"
  },
  {
    "id": "2019-06",
    "name": "Paris - Laon",
    "strava_route_id": "17569295",
    "cc_link": "https://classics-challenge.cc/post/85",
    "distance": 168094.09909019497,
    "elevation": 1694.6648236396566,
    "summary_polyline": "ovliHojwM_App@vGTU|CmLWrBmARuOqIm}ActAqlLqSk]eiBasBsH{R{OmeAdJwyAkC__@`Bcj@wKufAkr@nU{t@oiE{@wNpI}y@yK{j@gWkqGk@gEqER|@mOsDeIkJkCmCmIqY}DdD}WwCeWiTyp@j@}XvFmFl@a^{fB|N~EkeApB}zErUybA|Gkh@iaBsp@ui@`Gmt@gRem@lImw@mByGeDaAyPew@g|BwCu_@mXw_AqInDuCqMsNpIy_@`CiWyFiQiGcWwUqr@yIiGkE|AcKqe@}SmVr@uoAub@oNXuV`MiC}]}H{KeNkq@oXcn@s@iWocAVkOmF}EcJfH_ZMgb@tFoc@kPwOsd@gv@qDuW_~@wwA_AqOaKmAxEm^ap@iNuVma@qcAab@{Pcj@_L`GpGe^lMuUt^esAhL{U_WnAscBeRUce@{t@}{Asa@ucBuCgc@gYeiAmWy]wGtCgi@xrBcX|E{R|SnCca@kWwK_G_Twg@iu@yRqg@cpAlj@ec@mFcS~E}XwFcCdLh@lg@uAuJqS{CcEhRwBqD|@fIaGtBmFaQkX}a@ox@edAmVci@o_@y^kRzB{D{LuOeNgI}TdKih@zImqBxW{m@jWgoBrDqq@yIkm@dDk]xHpHyAi`@iQ~Wo@wKaWiYgRwQkQaGmGky@_LfGyMsGc@}IiIyLaKeFaJsQyHyAeCrKyQ~KmFhWvHrIdBxSqGmEeRrJ{OyZgRsQeKmG_X|Aw`@yi@gGub@^gRsFgQyKf@cEsMoPkOqFaYmMwKeIw\\kZwPya@gFiZzGya@_U_JgQmb@]mNgXwNoLmb@ZoU|R_VzGkdByQcBe]wG}VvGeSrDkd@gLgbAqRkS}TsFgMc\\q`@kN{Uwf@sOkIqE_MnBmLqM{QuAqLyNlF}f@{oBuOa^~@ab@oQimAzHwHsMyF_CkGcGs_AD_bAfF__AoFok@l@}Tdh@qAnW|KfSgTqCuSjFqXx`@qRzFwSbHg~@{F}v@|A}\\lFwIpM{EnIuTmNkOeC{NwI{GYya@}Tmj@uFdCkf@gKBiY{\\tMaTaTgWfCiEaXaQe[uR{gA`p@}`C_CcNwHmD@_M_N_LzCgHqc@k[wOca@cK_IqiA|KoZqO_PXrOy[g@wSqJgYrJ{qG|F_YaKh@}k@}SwQh@m]mTuUBeQsfAcBf@oRq`@_J}A~@pHmC|LoLxP?zFcNvJuPkQoTsByM_JsOpOiUk]eYqLuI}f@cV{_@dBsOeH_f@gVwh@eJo|Ae]ed@sF}\\i^s{@xa@_j@|Bue@eUaLiVi\\iMTqDe[{CxV_BmWZpJqEtJbB_MoI}O{HpFmCvb@fF`TmG}PAhKgN{T}JJ"
  },
  {
    "id": "2019-07",
    "name": "Paris - Auxerre",
    "strava_route_id": "18044268",
    "cc_link": "http://classics-challenge.cc/post/86",
    "distance": 230274.40065474948,
    "elevation": 1808.1010117298945,
    "summary_polyline": "ab_iHi`vMpDkcBv\\saAjBwfAjG_p@kPso@Iyo@xArTvPaTfTsv@|NkbBTqgAcHwE`Oyv@fS{TrWaHjj@Edq@rXi_@wt@dB_Ttg@ag@rFjIhMcDhQnIzCjL|Ia@n]nl@jI_JfKlAlb@a~@~Lc~A|HoDt@bG`SiWvbAb@lH`FbCi]xUuHtAcP`QbD`YkT~Eer@hY_MlOucAli@yC}D_bAiJqu@sh@ipAsAkYo^qAfIay@tp@obBkPeSgHq|@jx@q\\tk@cc@bYhg@`eA_Yb\\ba@z[aB`@pK|l@`QziBu{@fYk|@rTw\\f@}LaEmSjDcFwEiTp|@uDbL}GtDeYSiy@pJ{Gzj@eIj}@wx@fHmY`IlDfqCeaB~]gv@pLmG|Oef@_QgtA~@yOnSdFdLmLtEpAny@q[t[lGFnIuD|H~V`pCyC|b@bNlcAfReM`MIdC{X~LoUtNym@|[oy@dZw\\nQMvM~Wx|@r`@D~V`D|B|CtXld@hWpRlg@|dAp`Bp^tTxZxt@hHd[zp@hi@kIj]vBtQpO}GbbAxSvb@ysApUk_@dMeHn{@ytBp@}q@hEoq@tDEN_KqKyMX{KgHuQ|AiKpWnMrD|Mf_@na@~ZjTx]tKf]FlCpEq@oW`HqWpZFfDtFhg@uLrLoOxMcm@wAqv@{OosAnAmXzF_SbWyYpVwHfBkFpz@nAzNqFfSaW{B{QvFwGnQt[z[qm@sBeDlHoFhSgn@~_@oCvG_a@d\\}JjYzNlJqEv\\pVnPzAhExIg@jIji@rD|YpOz}@eAjTqYfLfS~XxNrv@nC`s@mz@nSeHjNh\\jo@jOz`@lYxr@tWxr@|K|^gFlWaRv^_qAfa@mbEbNce@hRiXzT}j@vF}zAdHa_@wAar@xT_cAd@ibAh_@st@bJqe@x`AiJd`@_OtVxDpf@}XlTjA`@mTrNqMdDsOpHoJfp@kQbZ}fAloAkXkC_k@`UcD`mAhHrbAuk@lk@X|FkOdb@}Ypx@mb@n_@{HvZ_]~QcAdi@sc@v`@aB{[q`@ge@g{@wPqMki@aJyK}MqHqPiDwcAjKykAnGqPXwSjBC~@cKuIebAhFqKtI{hArj@uvArv@cs@zFyg@hFoHgE}Kv\\gdA`RwZ~g@gRgD}RjFiq@tJcSbKgl@sK_ZXqPeK{t@wQ_Ml@mM{D_SbGws@bEyHnFy`@cCuu@xDm`@{Eo@gGfH}LgR{Iy\\aGeFoCwa@ca@ih@aKab@aEap@uDaKbJoa@|H{JsCsQjUgMjZwfA`De]rTyPtOn@yOgNjFmg@aWqDuAwRcJ}JzYiNkBgf@hBgRoNko@rRw`@^iSfMyZvHgi@mAyyAd[cyEdV}z@vY{i@~b@ipAdSc`AqEuRtUuRnj@f`@ra@iFnUpQ~c@cB~`@rStd@~F`sA~aBrvAxj@tNfbAhLv`@hRvQbCYV}K_Gi_AlF}HzEBfH_g@`QjI_F~^nZ`I|PcCjB}PjAjQdCc@zcA{g@hf@fNRcEd]lPhGrLpu@tZlL|Sx_@`Hzi@fiBxD`IpU~IbBawBvHmx@nGyV}Deq@`d@oxCqQwe@x@yUcLosBjOkw@J{XzPm]bPgNfXsrAi@}NjCcJqIoHvB{HkEw[zF_]bWvMnEiRtQqDnHcKb~@mSxQuK}@yRdPs@f^gd@gHcx@aNkUzA_PiBgp@~X{Kb[ej@hJ_Fxo@nLx`@qRxA|YpCi@cByZdF}FpIc]zGwo@pIaLzD~NrKaBpErMxqAlR~p@[fb@aWreApYrBaIdLlCzKiN`^cBhNna@mD`GbDvDvDmCxFoYoLcHnHiQqBoGhJ}_@mMgJkPc@"
  },
  {
    "id": "2019-07-bis",
    "name": "Auxerre - Nevers",
    "strava_route_id": "19367022",
    "cc_link": "http://classics-challenge.cc/post/86",
    "distance": 166074.4831109683,
    "elevation": 2022.5098361799478,
    "summary_polyline": "spubHoszTyIaLva@ov@xQ}L\\{KxYaz@nHoKtDrB|MqRtGi@~eAhXpTfn@xWzTjPbY_ErNzr@rUpX}Ijn@md@x`@ah@rVlHbX{UrM{XdEjPfZvZfz@|eBn[o@`Mnb@dHwDbIiSzIqElr@gBvR_Hz@kPrKeNlKtAbD|Gxe@yGlnAhLji@yLjCcMnJ`ExZeZ|aAuKlc@x\\~YhHjH}BnDoLpQ_BnHkQvUaHbZs_@pLlHrT{Dx[pK|_@b@oGyyAaMyw@}H_UGwNjFaV}CoGTsXtLbInJtXfZfFlMcL`YaHbWeZvH`_@zcAbYVxVdCrFgBkIjDqTyDoQ`Nwh@_SXlDkq@~DuLzOqEtJ`FnGnMdSryAfKtL|a@~@jq@{Yx`@bQhQkDbHig@gLiRbBsq@{B}R{EyCfC{FyAkYfEgu@vHqXCeLvJqLfBuSrFi@pAoLvGk@x@cn@tLih@hbB|I|^wGrSc^hEqUCawBnFwZrMcTY{HxGqSrx@whBvg@bIxrAzkAcD_L_KoJX}G~MxYcAxKvJ|CPtH_QhRjFfdA_ClKzP~X_LzVwXb]wYf{BuMt`@sRfhA{`@`m@kFjYbJrIlBx[yA|_@gLjFhXhRpJlPpBdj@wAhWhDb`@b~@`iETv|AfExt@gDbk@tF~h@l^ju@dMnA}Bfa@bHjSjSvOoPny@}OrOmGnRbPq@~BtHlStLlOtl@zKrRnI|ApReHx[tc@t]oDtJpHdPhd@bJsUhMcFtn@hZr[dGtXcLhLcNt[iHzf@tZvm@e_@hZeJzKlHl`Bs@~l@dp@n]s@hr@p\\|Y|[dSyAzL}Wre@d[jb@rLfInR~OrFt_@ia@nH{[vh@oZrJ|A~a@nn@bSdIn}@gLf_@qb@bNq@`d@jnAd^|DpQbRzi@~T~ObgA|PtW`P?xc@jWli@xr@f`@t@fq@zh@rg@lTjE_I|BrAd@dThRpz@Abg@`Gvb@lSh[nQvE~ThXfRhJvCiF`k@oKrfAvh@jSrQje@qHxIn[fHlIr\\xEdHeGb_@tYtSnc@h[uNfIbXbQjWh_@z^fNVkIreApW|h@rRkAvXl[~]~~@~D~ZwCvf@lo@nH|O`L|SpBdNjNlT_@{Clb@~GpK}Gt{@WdjAfBnGpd@rV`F~`@pRxRvHxWpMxLjTth@`g@tOjE{u@dHgNhLmm@}AuOlZid@l_A}cC`HoCfc@zUbc@xb@pz@eBru@ri@tHnhBcQr^u@z`@cO`h@mChZdAd_@dKru@pSbl@lGdd@r@|WsCdWjLn[dQ{TvJ{Ytl@h@z@fOjPtd@tSbK`i@|{@gErJo@hWiE_@oBlVzAbPzIoC|UxbAlSfi@rDrBmL|`@y\\jCmOzw@|G@yLjMyOnh@jZhE~AoLjn@sFbE{FSak@fTh@tBeA_@qFvIkCbT||@"
  },
  {
    "id": "2019-08",
    "name": "Paris - Bernay",
    "strava_route_id": "20060695",
    "cc_link": "https://classics-challenge.cc/post/94",
    "distance": 171327.9975176814,
    "elevation": 1498.5692578936669,
    "summary_polyline": "kciiHkg~LzA~DmB`JkMl]IxMfDxBuE~t@dIjFtRvwAuLdx@kS~b@oArw@no@ll@~AeFxRzHdDjKvn@~i@|EfSb[t]hTfJxK|VcQdiApH|I}AzIrVtXuH`cA`J~I?b}@gJpQSxZqCdKlAli@aHlBNjGoDuApO~WqEjQjD`JcFdJ{XkA{JxOqPzx@w`@rtAiFyA}CuIeEfU~BvJwC`CnNbh@wA|GkHrChJ|b@rV`T`k@BoC|rCoYlo@sErVwOvQi^fx@dJhQ}BtJsDrAsa@x~@o_@x\\mT~_CwKzf@tDfZmCpMqL_Byz@hrD}b@faApUjQpGzUdLhF|A~VlGi@pBtH``@d`@jZhQlx@~H`_@nk@xCpXS~`@gTtuA{Zhg@vHlUqDra@kOzLeP~i@gRxRrIdW^jhAfLr{AmPzf@zKhN`AvIzMgH|d@uCjZ~RjRxe@oVpZqNv|@bS`SpFjTsHhPae@vP_Dhp@uv@`oB_Xdf@cAvl@cIhWyN`LnA~MoaAxUo\\f\\{^wAHtLnNb\\sW~a@mc@bjAuKheAcTdw@bV`HlI~X^rMzF|Go@jTiNzc@_Cx\\rEtBU~F`f@`k@x]tUbMxSrz@`V`OrY{B~\\|DbC`I~q@QbaA`OxcAwAzXzPpW~Mbc@`PhJ_Dr|@lDvh@{Jv@oNls@iWt_@mLvc@cGheAsOzWkLp`@ei@n_A}Lx@uShp@eJqBwObN{DrNkIh{AcHnGsX_P{PtM}I]i[rXcOmCmS{Sk]_AkNl[uHr@uEzUyL}M{EpMuY`XmRd[wN`g@eb@tk@mP|w@~b@v~A}CtWlZpbBfEv|@yi@tLb@~zAfEbF~BnYcK|TcOxB_FnKh@n[fHzKgHzm@kFtIjJxYuCd^@xm@|Ctd@`HdI|BbXfLbPy@bJ}Nty@kNjWyLzq@gYb\\fEzgAyC~cAkPxa@eWhmAnWn^fi@hxBrc@zbAbJ`d@rE^tExVkFrJhBvK}CdQlE~IaMxVzBjK_Fdp@nO~aADzWlI|TiP`KjBbXoFzh@|AjLpTn^~Sjy@rLjMuCvj@dC~UiI|ZzB|SfI`S{z@pdAm[dpB_d@|`AmuAnyDeMrMoBpb@kJhTnD|NyEnKlf@hv@hT`y@SpYoEfGhFnNShYmK|k@xIhcBxR|r@{QtoAlFh^pG`KlEfr@cEx]Z~d@}BfHdCx[iFz_@lAjZsGf}@q@fq@mKtTmNxk@oCnpB}Qnn@}Zvr@eE|@]xEwLeB{Mlw@]n\\kPf@iFfWuOl@_r@jr@kHoMoh@p\\}z@zScSxXmTf@uPpe@_SbJsQtZuTbG{Sph@qf@`o@id@naAuv@nQaOpn@hGvu@oMrYdEiEbEhFqDeCgq@tlAoDpRiFmBcyA~wAwNdWcAbl@|Qje@zMhOlGvd@rk@bnA|Q`SfDrX`Qjc@hBrQs@jw@vEh{@gHro@Ot^_Hrq@k_@vh@dKduBhQrd@hHt^dLBb@rDGrXqFzBgAfSa@eK"
  },
  {
    "id": "2019-09",
    "name": "Paris - Houdan",
    "strava_route_id": "19838388",
    "cc_link": "https://classics-challenge.cc/post/97",
    "distance": 146830.4028479677,
    "elevation": 1610.198103175605,
    "summary_polyline": "kciiHkg~LzA~DcIb^iOaZaUp{Ag\\vv@{N}c@o{AhyAiItaBqGoA}EyFoGbB~B`Z{RdLuOrSoPbc@rB`M}Xtc@Y|GcOfKgSz[_l@vm@uf@twBiMnc@wPpb@_BB_P}Pqc@m]c`@cNuZ_AcV`E{r@`a@{L`MoU`a@cLd]}Ivx@oPxt@uAlYnAzk@[jXeAzJgEfMoAbVbEl~@gBt`@lB|bBxFr^d@~MlJxj@FxIwJf]fBkKyCk@gf@lCkB|WkTnf@kJhC_v@hc@eGkDCbJsW~f@qJtEyHtQeSpJuYz]mErKyQfCw[_E}J}UaWw[EsEoF{OyAxPrEb[wKlMrGvPo@nWoTzc@yCtAb@pFqCli@dXdb@cCfQd@jDrPzHbO`PXdRjEbRk@~LhAzq@aAxXhBpRaE~OoTtL{M~[}AbRwClLuM~W_Hpa@h@lEmB^kDtJgDoAgDnGsBnLkGnI_M~ZwK|c@uFzFHxPgQmAgFfFqZvv@wCrBqCc@wVw[sZqMwHkAoFfPsB\\yC_`@ePeOq_@{j@mH{EwKyNiP_p@}F{^cM}^rAyL]_FoFm@iFxDwDqH_s@|QuHfLkX|r@iPxNwF~SkHgMgGvCkLmK_FfAcRqFaKtIaDlLqa@lZqD|LqCfDuUa@aHbC_F_CiEfEaGYeGyCoEoMgCeCwK[qATu@dHeKhQiM|AiDbG_FkA]pK_Gr[|AlQsBrq@lGpRvIhh@bDf_@R`h@rE`y@|PzXtGkF`B`ELzFcAfRvA`}@}Cta@{Odp@yDbG{OpLrDzFvBvLqBr\\zDzUIn`AmD`Z}Ava@hAzb@jFhw@SzSjFbKRfDwOlm@`MvWxCpMuAR\\bJsDlFqJjB_AEiJiU_EkFeBbDoClMaHdO\\xHy@vFyMf\\kZnfA_A~d@lAx\\tRdz@VnJcCbe@|^~MpMn@bKxKrSxIbRvAtH`J~KpG`LpAxCfEfDBvOtZbNuBfLzIk@w@xqAxKr[}@bNxNpRaOkAjE{FnDoAxFjArJ|DbDlMmKtM~CbSTjNhG[vMpCpMuObQiBnHDlt@oD`Wra@\\zl@bh@zNzGzHvKjP`NhAjEEdH|GtNjBdVeCjk@Rfl@vDt_@aC|KLrT|AzI~Cfw@fHhS|F~`@j_@zu@qFzBdMn`AiA|W|En`@fm@gk@xCInEvFxFkBXtG`CbAbBqCvCvAvCwIj@dIlACf@cExHhCx_@|^vQlZnEzCji@xbAzTzt@dt@ah@zCbMh@~b@lP|_@la@tyAjDda@dLrGzEjl@hZx`@aAvCb^ja@jLg@dUdYdZtOvVvAr@oFrE}GvF`Z~Aw@pDbFxGwGjEa@r^bYvQp\\|RzEj]pWfq@`o@lMjW|R|AfSkBz[|HhL_CtK`NtE{UtHs@`Oy[t\\jAlSzSxL?hAlCfFcAjCsGtO{M|I\\nQwM~XtPj@tJvAS~@kF~MjEfOtSrJnGpIgEzjAlAhK|FlYcITvDsJnIFlBnEh@bTpMnStQpLfAkBdiAlEfEvPfCr@yDrOYbLdItYdd@pLr_@hd@`fAnOkBl@hOtCl@^zJj]wUIcEdDsPe@qf@bJoEzDeK~FkF~Gea@nGeFxFcNjTk]~E}EvK{CnCuGnCm_@uFgMeE}WsCsF@yPzJoI`GoOfGyj@lYwiAnDkHz_@y[vZq`ApCe\\vRwm@xFgc@vI_KjF{d@dAwc@fAqG`D_BtFkUv@oMdLgn@K{LjC}JhMgXpLwMvYcGxP~CjEoDhGeb@fGeL|ByLe@{BjHyTsNfHoWaL"
  },
  {
    "id": "2019-10",
    "name": "Paris - Château-Landon",
    "strava_route_id": "17370829",
    "cc_link": "https://classics-challenge.cc/post/100",
    "distance": 132650.95473731917,
    "elevation": 824.2420910446011,
    "summary_polyline": "ab_iHi`vMPm]`C}S\\_p@nEqTtN{UpFeUfBsVBco@vGgw@ba@o{@`Yy_@`OcdApEgNzNTjn@it@ze@oiC_KyLuGeClCcI`PtJeHcR}IiLKcDyJeOdB_Ttg@ag@fBFjCbIhMcDhQnIzCjLfK@lWp_@fDzJt@k]`La[jG}BrF~@hD|C`CfJtJwJjFkUxFubApCyS|HoDt@bGdReWrcA^tFnC|BlJvB~BxPP|EvB`KlR~IuFvM`Ff@gI`EgIuBeLdIm`@bI_PzPyg@bXxOnNjRtWdNjl@~f@fWrb@pEpb@dK~RoArNeH`LjDpEyB`A`BzN[lFcSd[y@xGxBlSfLhIbQrc@`J~q@i@jHv@jF{AxJ}MfN}IxB`Ft_@@`j@vMnhBvBmDzcArWx@}BnCa@hBfGzpAzUrgB_dB|XxsB|FuJhGo[fg@{@rd@}\\n@mMrIwT`@kVmIwx@eEsSXwd@qByDcWmEbCuKvJcNy@cEd@aLxB{EtEcAnBiGjZaDnN_IdKuMvCjDbMfD|s@xh@jEEl@cBr|@wXvCv|@sCvJoDbD@hM`d@cFxBpi@jX{@pi@fRjXbE~S}A~T~AxS}K`OqBrFwLzAIdD_a@sCiCv@gL_@{PoRijAeHsq@q@}RdAqv@dBwPdJs_@jRoTbKgGzy@nJzC}GtNtH`M\\~z@uTfe@`UmD`Z`FbGnHnVd@tNjQrCpJkEp@|o@wBzMRhMpBvBlAbIkAzKfIbT`LbI_@lIrGjOdN`PhUtFlEpF~KlEj[l^pFxJxX`Q|AsFhEaCpYlBxd@sDhV`HxV`A`Q_ChP|GnGVbLfIzJnAnCoA~GwLdJgUtKuIxl@f}@zMtL`PlFbDrH~B~P~E|LjKfKhTde@jEnEbSl@tBlL?zLmB|HfPzRhCvJ~LtUzHbH~WiAdFyDbKo@vEcJ|EgBnLdAnJuJ|n@xCr_@kElL`Bi@wC`g@wKj@_EoBgX`AkTdFEhEiIjAzO`EYbMzHh[pIlPgOnKiQtNqNdP@jOaNnLeEvKcKpGiRq@wGlCgLlAuWlBwKyAyOvBgOjHkHjD@tEiKdFwU~A}QnCoGdIqAr]sVfImCeBiOh@{Dh^a@|CuE|Ca@hGtAz[p]`E~Hna@rIvmAvhA~a@cGrH{MhHjKtFrBWoAbCwCzL}Fx[`DzC{MoAeYdEkFv[mJhHyH|^qx@~FmSvGaEjAwE_EkRXeItPuT~CoQrSuf@zBiR^kY}Ce\\PkN|ReeC~PaB`SaOf`@ou@xQ{j@pHuF~PnAzJrJpNhCl{@aMlSdEvMCvD_Jxh@_m@xh@zLbbAOt[gI`BbFtMiYvD}_@pLuo@`Def@bFaW`Yui@|Nuf@t\\ck@jBuLGwLvH^pSmKvBiG|@yLhSg[tGcHzRmHhd@q\\nu@eu@hHiOzLsJzYyc@`o@__@|FJ|KnGc@tCvM}L_AmHqD{E~@wAqE_Ny@y[eA}CF}E~GgB`DkFbAqQqHsWcOgLiCsLHeg@`Bkb@qG}PiF{DqQuAkU|GqXzT[yAhEuCaEaOo]`^aKaNoNzHyCiAqf@~YkBeCe@wFtDkF"
  },
  {
    "id": "2019-11",
    "name": "Paris - Versailles - Paris",
    "strava_route_id": "22535256",
    "cc_link": "https://classics-challenge.cc/post/107",
    "distance": 60517.88419240435,
    "elevation": 783.4448712951425,
    "summary_polyline": "kciiHkg~LhBdEqB`JjFlSjQvYvAlWcBlE`CbEpCrQrLxYzA|T~Z|\\d^`C`Dbp@oCv\\fNbIbPbJv\\sBzBnAtRmVpZ{LxGfD~n@gb@pKvVfBpN~j@gWnWbCL|BdIfInPwJnHJxDpHzTmD~ArF`ElEzB~IzDfA|GrLxEtBsBzVsOoFuE^GbHyBb@W|CiCWUpGgClHsDjBoCtG}JbFpI[hBd]vy@tw@tCCfIaMq@`PeBnF{F}CgCpf@gHdYoBhAkF`a@iE|O~BhHnY~Il@_VrF}HxUyPjKxa@sP`{ArE~KxEnEfFl@nJqL~MxCnO{@tPl\\nEvN`H~@|@}J~CaFp@gQnf@wr@hG{YdYmJ`Cae@jIgQfLuHnIbGhFs@`Iwe@tH_Uk@|D~ApCTnVcCjYyCp@mFdOyBnAy@jFoGc@uMx_AmCfCwIIsBtKz@hGqAtGr@bRfEjf@nA~GjAZw@bPrF~BaCde@zBdFI~HuGxVq@j\\zJlPaEnSJlSiHvPaLpm@RxD_FvAaI`YoD|CmIoHz@kOwDzKsBYaHwBsDqERoIuHFcL_Kkm@}IoCxOmAlYeKhMwC_DcDuUi\\yQuOtSuOeIgDtRmJwBuEyEgHMoI_EJaCaLeA~A_YoPcLh@_RmQor@}CsAkCvEiDq@mA{Df@sLgLaHsC}GcBwZeH_WjB}QeDmh@mAiD_TqPaMfDgA_TgHoReIiL}A{MwSzBsFyKoHbE_@sEoVuILcP}MkFtCkHn@cY`Ae@m@yZrAw\\qc@gEzG{QI{FiEyXcBgCyAVeCiJiEz@c@yh@eAeF`BuTsInGcJnAye@yMsEeIuAqPrAeIbHyFgkAk`AU{EzCgJN{LuGmZsM}iAyd@{SdXckB~@[fBpGxJgHrAvE"
  },
  {
    "id": "2020-01",
    "name": "Paris - Mickey",
    "strava_route_id": "22065710",
    "cc_link": "https://classics-challenge.cc/post/118",
    "distance": 102457.13976411473,
    "elevation": 825.0782029048099,
    "summary_polyline": "ac_iHi`vMp@m]`C}SS}a@lAqQdEgQ~K}PrF{PhDu^Bco@vGgw@fMeX_Pw\\yDeB_H|DNae@GbU{\\nDkNkDyK{PyBwIaDmWwAk_@zAgXAs_AzKqgAs@oN_Mu[iO_IcHCkOzIiJlPwb@dJkPsCgPwSwMmhBMgP`CkTHgRmFcOiAuMGm_@fCoh@Y{VsGg\\}FeEmf@rQsFqOkFmg@bAoSmA}`@fC{Vls@_R|Fei@hIcQxDmB_BcsAbHam@u@yAsE|AgQmHcC_KRy_@lHgB|A_EmFwmATg]kCoXhBa[xBeL~Bq@hTrH~Aa\\m@kKl@ms@zEy|@iAaJj@aSaDmPgLyEuc@tNwN}DSeRuBiNdA{D_AgIlDk^aA_@f@aMtDqVyEgA`AaGg@{NhGkd@bNvAvEo`@dKgd@pSiTdCk@pGoLhTqs@tF__@hUmQpb@mAzMmIdOoD~h@`Fp]}Pf]~Khz@ca@fLzAbNgBxG_JjCqKdSwTrKqDlPExHaGzMeEnEaLfi@{^vKn@pR|RbKkC~f@`AdA~GnEz@fP}YhLm^n[nGrQiW`NmMkHqQoDs@mEeFePg]mIoY{Es^aFoJuG_G{Z{hAWmCdD_E{R}b@mL_OhBop@eKwm@`Jw^vHmR|QuRbJ?vUml@kDeN}HoKc@eFvYmSzIgB}@cL|Fkd@S_|AsCaU|AcPUoUaEyANcEgCwAsaCyv@ySFm`@nMaN_EsWrIgC_DeOLoSwQgYuFa]iZ_KuCy@fV_BzGaNGcY{GiB}AOeEhC{ZqMiBrPcZxC}ObJqz@Wyk@gDo\\ea@yCmCsAcBsFyTfF_IjO_@tAlFfAnC|Ex[d@aRpQ{IzE}ECq@hWmDvBkB|N{RtWeBdx@_HiAYrLtBvVgBve@vBvXiA~GxGfDcFlDDtBzHXwAzGrBzf@ud@kVyi@{JaUo_@mEc`@oCgJqc@qZiDv@cBfJO`_@nDf\\{AhKrBzSq@~_@jF`LbM|B[pLvFb@|@jF{CfSaUt]uVlO}MzB}Vdu@cPvYuEhOoO~Z}UlLyJvP}LlHaQld@oIGgGwVcGmDcI~S{Izg@oIrUui@fdAcAxJ`EbB|@nFp]fKsSl_@sH`ZiAl@OpF{G|Rc@pGpIxr@nM`MlExUdBzB@pFhCKbFfG`G|@uJj`@lAvG`Yhq@sCx`@zQbFr[qQjFcGrHhVrChC]~ApJvNUtCfTxESvJzDzFhInEz@`CtJHi@zNxUy@rWaGzO}IbT}TwL_WIqDuB{@mDgHbHsM"
  },
  {
    "id": "2020-02",
    "name": "Paris - Pontoise",
    "strava_route_id": "22691701",
    "cc_link": "https://classics-challenge.cc/post/121",
    "distance": 107596.65606347256,
    "elevation": 1329.3111712176178,
    "summary_polyline": "_fiiHcn~L|D|KsI|]_l@goAg@iEyAb@IxC}_@p_@we@ii@of@c{AwP`V}]tTi[ybByN{m@wFpHygAugAmYoGy^xJaOnKsJzPuV|wAoHvo@{B~_@u^_GqJoJig@hi@{J`PySa[uCbGwGxCeJoHyCIyHzRok@xDkIxGcV{JyYnKySgUcR`p@eQl`@|@nAuO~s@}Mhd@iBnANpHaI~TkJnb@_^_JR_D}CeBq@AqB|SmBjEw@qFyBYuAkDeP?ih@j`B}p@sr@}J__@qEmG_NpE}f@wIoF|@qXm`@xScPbQynAdNyZa@kNhDoF]yTePyIsM}Pc`@rUcRHt@|QpFf[_J`@iAmAf@aJmDqXaXgTcRgEn@sn@iR}@wGzCiBuGgEsC{@}EkTxFeLnIjCxHyBnTe`@dr@_Hrk@ac@dPc@bHxA|NkC|G|ArPQzJ_FtJa@dR{CpAcHsGoEiR{EwHsFiAkDpCmAlEoDfAqRmPh@eHu@aU_P_`AsGgLg@mH~JcObKcb@rJ{PuLmP_P}Msi@opAab@n`@oWyr@|K}e@wNqBoFyN}I_r@eJgwAqX{r@yOh]eAtHwEoZih@en@kYyx@W_KrCaVjFeHaWahAlAoLmoBfCsFtvAqCjtA_H|G`@r\\vAdEu@lK`FlXm@dKeGK}F{GuCG_Xn`@wLba@y}@bcBaM`IuQdW}ErAo@nZzCfb@_C|~@_Ill@?|ZeGdH~J`IyH|E{AxIgKnSoI`bAbB~VgHhJhDpGyDtFlAjQ{@pHnIzMfXnsAaA~SHfx@vEbXjCft@`FlUcWzSmEvc@tDbShC_BlH~JjL~[|K~QpGtPpCvN{DnCyAtVdE|XlCtD`OpEzWvPxYpZ|Ppe@rGjGxCrNtKrP`Gn^tJnNdLrf@xC~FjTnDbSkDWbN_HpOoInGiNmDwBrGoBx@{Y}EaTrCaZjQqXxiA{HvObGpZo@`HfAdK`HfGjDfJ}@pHd@lDoF|]aH~OB`HbU|SxNfThh@dg@p`@bSlVbWpZaIlE|PYxGxCeIfP_JbLaCdKlDxEwHSmMzAXpGpBtAfKiA`IxArGlO~E|CdFtYpOlUdRbCzE~StKzDdGnNoApGpI\\wG~GqUhJkI|EuKtI{Hb`@ok@bZoZhh@uo@rGsOlWjE`QiJhYsHfDiGy@yHfLgG|c@aa@pKrGfJ`MxGm@bLvTbEfCdKyDtJqVhTl@zChP`EfFpY|NzWhFlEzNbGwLnAFzB|BBfElCtGb@tMlBg@nGaW"
  },
  {
    "id": "2020-03",
    "name": "Paris - La Ferté-sous-Jouarre",
    "strava_route_id": "23305563",
    "cc_link": "https://classics-challenge.cc/post/123",
    "distance": 125765.9748739771,
    "elevation": 1134.333743129193,
    "summary_polyline": "izliHeewMfBn\\q@dNdGT?nCqKSvAqARuOi@aLsE{@sAonAsx@q|Gt@wA{ZeiCyG{PelBiwBsOiVwT}pAoQenAlAw@g@uD}V{cBuCaAcEoOm\\q{BmUqsAiAh@}@yNvH_l@X}Lq@oHeG_QaBkOyVklGBaM~@v@oIt@h@_RkEwG_IgBmCmIsIX}NwEKmE|CmGRaIwCeWiTyp@j@}XvFsFl@{]cp@zDmRvFwc@rAuRvOqOeBk`@sc@sf@qVqBA}BjOso@nIwBi^qOgQ{GmWQ_h@sEyk@@}r@fBoR_s@u_@eLcO}Cg]hCgb@zFaYpB}r@qGmK_BySew@g|BwCu_@wSsl@gCqQ_J|CuCqMsNpI{`@zBqh@}NaMyNaI}Eg[cAe\\iJmAwB|AcKiT{Fi@qC}NoGmVr@sYgOsg@sJmLyFoNXaR`HsC~Cz@~DwJx}@aR~x@}CxI{SjZGlSrHho@`Enq@yUdS{VhLyMzOiDbWcq@rsBi@`c@y\\rX^jGgCg@wF{JcQd@mEya@sGePsg@w}@cN{Nq\\cQwSiFwImKgUn^}BiBgF}IuAeLfCaO~FcMiRuKiLwO_Vq{@jMwG`L]xGwHbJy@vHsJ{ByRt@ml@}Kif@aOebAj@eh@hDiRCi`@~EycAsIePxAyANuFyCuOBe`@iBof@`@eSxCkRjBgD{I{C}Cef@nLqDnLJDqNxDyBrH|@hD}Q`LkWlZsW~Ow\\lKsMhVob@jEiVvHqClILjLaMxT{Dbv@qfA`UyEj[PrDsMs@_K~@gKls@iW|CmK`E{\\mFw{@pG_SjJyEhEqFoB{GFwJzHiNpT_cAtE}_ByB_f@jAkSpWgJrx@a`A~GwN|T{@bEaIxQiHrUwTsIaImMkTU}ZmKuc@aEsFhAgJq@kG{AkDwDaBeDuU}HeGeCcRjAg`@da@yYyd@wnBuO{AyOiKtSuYvIqn@`Ay`@zB_KeDaRh@i\\hHgVhCuT`MsIhEqJjA_HPyVjFgLtBmLnEwBxOz@~CmBbLnHrEpGdLwWlQwL|J{K|I{VvNiWrv@ss@tVan@|C{ArIwTlCiCjDeP|GgJlTmInPgSta@{aAvFcB|K_MdJi[}EoM?qHzOpFlGgCzGsM`EgDpIeBjXsZrK{@`GhBlIqBtEcRxGgHFm_@kH}n@iKmLzCiH?yDoMmLeCeGhGwJvC`EzE]fLnHzNgAhEbE`QmCjKwH~RH|LtF|DgBtItDrAiAbAmHbCe@fOj[bL|KlCFf@kHpGJbClXxQv`@zLrPlb@ja@vNwg@pCiFhBtDlOqYbUtRf[bQhH|MbBzKfFtMpAvhAi@nQ~BzCFzDuAbh@yHlToDtQwFdx@`K|`@`JdQhGv`@jJh\\nF~FlBjSvEvQuAzEoH|AwHlGcAxO}@XcKuMaEtEuH`TaEfFv@nI"
  },
  {
    "id": "2020-04",
    "name": "Paris - Noyon",
    "strava_route_id": "23643080",
    "cc_link": "https://classics-challenge.cc/post/149",
    "distance": 159325.930499508,
    "elevation": 1627.082011018346,
    "summary_polyline": "kciiHkg~LhBdEsI|]}SiGuBtHynAxcAyLj@ik@ojBmi@qsA}B_NpJb^}w@qrDyE`HqoAqkAuQsC{XjG_U|NoMfXySppAiLzqA{^qGcJwIin@np@_DyDcDfFlAbE_Zrl@}NiE_MdPi]qCOvQeE`J{ZpU_Tj[gL~CiQmEkEfXot@w_@eRvi@b@nF{YpiA_Mzv@eW|YcN`a@}NyGw@{FwFhDAuOiEhFo@oKmEjCs{@e{@sS}i@_NpEmn@yGqXm`@ui@Ww@bhAfHfy@eOjgA}MGgLrNcK|CKnr@gn@~yA`AnTeFtS{n@cNiQ|[m_@iHuL~]Q|LkWhWeRni@_`@yE{J~]aLvI{Xu@q]cT}ZtE{KnHgQxbA}f@aN_TnGiI`K_`@dDwGlGi_@gHuFoNkHeD{]a_A{\\qi@iG_b@cPc[sAkWfHy]}SiSTi`@iD`FkD~_@mDkIJcOsNi@{JzSKpLqJt@eK{RmL~@_SsLcFdFoBuCws@`h@eNmo@ct@_rA}Fsb@uP{GwOmQ{WRg{@{PgD_GMcXaPo`@oPrFmm@{_@gVh@mUiMs@iG_KwJ{n@|EkT_Lql@yCmQaJgAsEpS|DpDi]uGc\\gSkQgFyOiQkQwDoe@wGHiWuRuDyVqK_Tqi@mXaQeWeItA}GtSa[{Iq[um@}Gwh@}FeNyKnFqE}OwU|QkPjBi@cXwUyIkY{ZbD{[iAoLdEgNmAic@gEmP{z@sRcMeXcZwTdBwK~LuHxHrD_OeYbEgZsDg_AjD{\\tGoRr@wo@cFga@ZoUeKaD{FaQd@iVea@}bBhGwXJ_YuCcM?wYeIi^xS_CvHkHfFoWtWsMsKkd@oUia@aIwd@zAgTyG_d@jMkPcGcR{MyNxOwFkVmh@uLaKnIu}@nE_@{Jgz@Aw|@aEwo@pHcj@f`@oxHb[an@lC_\\sNqiALat@w[qW{c@gj@yYwHy_Aok@wMk]uIjMeZgQ_DnFei@uZe@qHxGgVua@kq@}Pac@qf@yQgMjJuKJoQg[ct@c^c]iEm\\qPgLqPwVcNuO}s@{VMHiSk[sIeI}h@kXwq@kWwUe`@io@wNo_@NwfAoK_GsOdBGhEgh@rPg@cu@qHam@eTcX{IiX{@}SpH_e@{H}cA}EgDkKcYevBjIag@zMej@jCkVmKw@uPeKiG_Ay~@k]uM{Hc]dEisAyJsKxPkKcMoB}QsRsWq{@cLmQiUgaB{Qu^}Hsj@lj@}aAhYqGjFeR|Cgc@fH_PbbAcSpSyz@pAgp@lVkFnB|CjRoTqRg~@uCkBR}VfJsH?qGsNkBe\\yh@}HgAwEnFufAcPeYiMgDw`BwRcY_Vmj@gfBgfAoBqHqb@fc@c\\qy@mRvFmItLcRfJmWic@RwJ}It@xD}GuAmJn[sQ"
  },
  {
    "id": "2020-05",
    "name": "Paris - Nemours",
    "strava_route_id": "2738684289169355218",
    "cc_link": "https://classics-challenge.cc/post/152",
    "distance": 151733.85852521696,
    "elevation": 779.7196633465143,
    "summary_polyline": "kb_iHk`vMZk]`C}S\\_p@nEqTtN{UpFeUfBsVB}r@vGms@{No`@oAuRqQjDqQuDsGmEeNeScF}SqGqJyDslAqNlChA_f@tQ_JlFaj@lCuJPsQrCmNcGyVuJsJ{FFa@wNuTfOiJlP}a@|IeQkCgPwSwMmhBMgP`CkTHgR_G{Pw@}KGm_@fCoh@Y{VsGg\\}FeE_\\dKqEdI{DoCsDyNkFmg@bAoSmA}`@xBkW_@oByGhAwAgZcEgYJgKiAmBX{JtCuHf@mJnDwN}G{D`S}_DDiKiCa@pA{SlAZ^kF_BqJ~ApJ_@jFmA[g@xHf@yHlAZ^kFcDkTp[aTvFuAvKbN~FpRlABy@}_@j@gNiCiXbDad@~DqDdTrHd@gF|@yTm@kKl@ms@zEy|@kBiKeJkAiHeJyEgUqGaq@nG{pAnGeNrA{Sw@eHl@ed@pMox@pH_MhTqs@tF__@hUmQpb@mAzMmIdOoD~h@`Fp]}Px]zK|c@wQxTgNlMzA`OmCtEyHjCqKdSwTrKqDlPExHaGzMeEnEaL`g@g^|MZpR|RvRkBw@_ZhDaEj@cEeGyRyPojDzz@w`A}Oe^zV}VhQqLr[wF~D}LrGuD~e@mL|RdBnDeCfHdMpScQ~DuNn^aUbF[aAem@hE_LtAmMgBof@lB}WU_f@lNTvU`QdVtDxDtDbCnKjr@iDfCf^uCbDGfKfA~GvFuHHhQ|BjKtNnMdl@~WhN|C~PxSrKP`Z`NpJ|X`|@rnAzDxd@fEpBkB`MnAhCfEp@hPuE`GaKbIu@rVmOpLW~NxWbH`YhPvArN}YnWydAbX~IwI`Xl]rt@|Ssb@CcFrDeAtOyY|SzF_@hSnGtYj~A`[jEpNrMwCbBhFvMbPzCfM~ChD~J`B|I{CjOpBhNcDjTtDxd@|@~HgE~DrFdDbL_RfkAcOls@DvXnSdFdLmLtEpAdFwF~k@{MhE}DdQ|HnIo@X~EpAn@rBwApC_Nd@kMuCq\\uCoHjAcSaDeA_Aq[wHim@~EkJ_DkR^{I{C}Gq@yJkMgd@xXuGxKuSdO_KyA}Ku@qf@jGg@|A_CI}EfGiDqCuPxGwGka@w~@bWqCrQvBzYoBhlBbf@jNjWdMzEdGxg@`KbXjDsGlLdJrU{FjUkNtSwBT}\\`OsEzFRpH{PzLaNjDqHjLmHpH{LsB{V~Ceb@d[zFbi@wB~^~FtLKdc@{HtQmWxG`LjFhCfb@zp@|VdJ~OzM~JtYfHn\\fBtQhPje@mD~t@_Shj@uCno@GjVxEtc@]pHxKdb@yKf]jLlKh@fDaD|GoFhZ_CzEgDzDe^dQqAzIrCzEzQzBp_@dPzd@p]xBoAtBqGdNpYqBtO}D`IjKbUdX`Zbd@tSbNlCfVQ`Ay\\nc@n@fDtFzLy@lY{JrLoOfHma@nCs@`@aIwAqv@sKgt@gCg^nAmXzF_SpQ_UdMwJdOuB~@oE{@}A}@xB[rY_BfQnAhBhXr@bl@hJpUJ~c@oRnPaSxAb@~D|LfLo[vD_DjXiq@wBy^fJak@nJtEpGhNl`@hb@xKfVxKjLvYlf@`RpFpBrKzW~k@lWvdAtc@`mArLhRzArOf@j^lD`]xJnUxGv^dKnW|G|]xTpz@pCtj@|Jfd@pLj`A_EtHjXnSxJc^lCiWhUmd@vFqFzBvAnFkEbRwWdSkj@bQc[rHcSfPoDzd@c[xXcKv]k\\l`@sMrC`^hMho@rCxf@k@jFnAzDbEdi@zHba@KtRcCdMxAri@|LeAlCt]kK~KuBeFOzQgDpEeFhA"
  },
  {
    "id": "2021-01",
    "name": "Paris - Dourdan",
    "strava_route_id": "2738743135024316600",
    "cc_link": "https://classics-challenge.cc/post/161",
    "distance": 129159.73031000131,
    "elevation": 1355.3034681861807,
    "summary_polyline": "{biiHef~LxA~C}It^bAjJ}AnDqC^gApEbGtCfCpg@_EjOzAhDrDda@pLvs@aLtx@_Tpb@`@hGeD~x@hEnKxEzYdF|IcChEvF|LnEuCc@hIpHThEKfEeGrHtCkBbVfE`VH~KsFfVCrIgNduAcFxIxFjMyA`NzCxB_A~D@dTxEt@hHpTrIjG`JxVhJnKvNrKb`@d@hV|NpQ~Xg@jHjNvVRzGk@rHNgB{L|QwArLkFhPjE`CzQh[qEnQlDlIeFxJmXu@pNr@qNs@iK~NqQ`v@^|AoAn@cHtTcUl}@iFyA}CuIsBrIqArJ~BvJmBtEfCjD~Htc@uCnE_Ff@wBaCiCxN{T`g@iA`KbIh]dEpJkHfN`AzI}BpAvJzShBrQDjM}Er^vBz^|FnB\\tHfECU|FtHje@y@tQyKlXnHrQyBlJsDrAkR`f@gNvWmKtNaSbMmT~_CmKdg@jD|YmCpMcEfAyBiFsB`Ayz@hrDgc@xaAxCdFnGh@pHhHpGzUxBvBfEc@bBtC|A~VlGi@pBtHd`@f`@hUnItBjCZtFeB?eGxLgKdYaCpD]kFS|GqKvRwNhMqg@joAcZzb@eCxPaKrZmLoIr@rFaBjW`Dz`AuMvE{IyAcBjHmE~BbLj`@j@nKsIbVeD~Cv@zDtEgC~ErH`D|Fs@d@MlKzF~DrCcDbFnEzV`Fnc@xQdTt]hMhNjYnm@nEtEtWvLzKhN`AvIzMgHlOnAnTeFjZ~RlOrb@pEzCnCkCjF~Jw@bC`BDfEwFx[f`@~L`HbLzCpO`KrHgCfFh@lV~Yx`@bVlJnRjOeKdJkLvj@hN|EaA`MjHtKeK~VeKtJAlc@wJdUdJKxJfLyC`QzDrKfL`\\|Tb@pVhJ~UtDpWdL`RfM`DwArVJbZ|GzZFdJfIdRvH`DfBvItD~E|C~^OjLbTpF|LtIx^qMnH`M`MfCtGzWpDlE~LpFnBlNhGvLhZ?zMgTnXkQvEcd@dk@sdAdw@kfAq_@qPqTqn@zi@}bByOgEmOl@np@ssD|[n@zNzNdXj@`OhFzOdTp~@te@~L{X|G_]dM}uAjKg@xEkTzPgZvSog@lFzKnLvL|IoPnJyGfGtHfM{Bjh@tH`BqDj@_XrAsBZeGnNaLxBuMxCiAjFkOlOiHJoEhWyAz_A`RhRnSbNr\\~E}ExF|@|Mxd@~X{b@lNx\\x@bGnH~Cxj@mmBbVhXu@aGpAoKtMyk@pBgYxAmDtF~L|KrH|ItQrH~ErFxTtQcW`IhBhDbErFgE`MoSnEoDtD{J~M{MrFgMbCmU~S_\\jDpIlKsN`HLbSsQfHnHjDfIpCdPLzM~`@i_@pHmVBmKcEqXlBu_AuB}NrEaU{E_u@oD{Th@qd@|A}CuAqJ\\mKsDgPeBsAsBkOtD}DbAtQrGm@eCiXlB_k@_F{Qu@o]tCy`@w@oNhEm^h@qb@oNac@qZof@aAuI_L}BwAkKs`@jUm@kBkHt@mWwMpCsm@}A{gAiFmd@`Bf@pW{Kl^ga@vk@qg@vGeNxToOrGsPcBwc@tFia@t[cD~ItBdC_C`CuJtRb@~J_SbTlQlTSjn@bInDiFbFjEpI|@xDaGy@gHpAaBfCzG`@tLjGzKh@tJnRiDfEbZxDvCpMn^nWfvAsBj^o`@dWeCs@}FfEkBjFxAtA[jJ}BlFeFqDeAeEiCdDqEaB"
  },
  {
    "id": "2021-02",
    "name": "Paris - Epernay - Paris",
    "strava_route_id": "2835084050483853132",
    "cc_link": "https://classics-challenge.cc/post/165",
    "distance": 322109.2662952024,
    "elevation": 3348.3219066386728,
    "summary_polyline": "apmiH_ssMsBbOzUyXhB_fAaGmQUk_AusAwtLufCkdD_~@mlG_`AkaFrGwiAyK{j@gWkqGsJg_@ki@wSLcp@iTyp@pIm_AgJupJsKkd@eLfAoKuWm`@ucA}@cTcXnIeaBwv@ZiQlMsFqIeh@nAswCcaAcoAdEeo@yC_gAiK{Xq@ql@ud@sqAtVqfAtEe}@|V{l@`Ca\\dOM_GeIbHeq@x_@y\\bAyRgVcmA}p@cIeLmSk@_a@~f@unDsKgc@klBkrCgC_PbQkgAqR}Xg]cmBa]cWkBoTdGi`AgKynAxAkc@vTer@rHmdArMySeVa}@rd@ckCiV{w@eg@uy@hIow@ku@gRu_AsgAwQirC~`@_jAcBgQu^kH_@mc@kv@ebAkgA{f@uWyUkEka@ie@oNdJey@sPuIwY}m@ySlDp@gZmUip@eH_nAwY_g@}{@ew@_AsMqVqJi\\igAFa]yQyOgD_Twg@wIsUubAfD}Xq\\uz@~Cyx@aSiXeEgi@qVk@{i@ijEoJqHrh@yhAfFq`@`r@{hAj@iaCjg@ibAoBka@su@geBcQgoEl\\glBcJq_@mSuJ~RcqC}@kr@|DsUdZqUyQcd@z@sjA~j@uKjQ}Qz]unAjTsIbSqx@`B}c@wUc_BbSoSnYoqA|[u\\qJ_jBn[guBtg@yv@fJeAfe@i~@|@utAwNul@|IaBxByj@lT{R|Syp@kKkI{NeiAth@a`@vQabAuA_qBtUce@~Ee`@vAkgA}UghBdNon@ezAefBbLca@kLgh@af@mOwRlG{OsTqQ\\RcI{j@aEzeAcaB|@e}F}PoMdQiYlM_uCeZq}C{WsHqAwPxa@ke@veAcF`g@ul@t\\oEp^fGdQvRxKa[zZxRhWgEvm@hc@bLvWbj@vxDw[bz@l~@psFxZx]hv@vNPxPv{@bc@zYb^hv@hgDiZ~lFnHd[mQba@{JrqAmcAnnCyzC`oF|AvmArEUkKnTsBbm@tExpBlPxp@xUx^{Zdy@mCr}@zf@va@rRba@x[xNvJf}ApIoFfj@|~AfGlg@OlzB|R`j@mF`ExDtb@{ErGlR~tEjTpaA~c@zt@oGlcAyXf`Asd@vw@uMhwArYpJtVnp@xb@fYvPpb@~p@xOdD`YoiBt{B{Y|~@_{@`rAeAveC{s@rs@aCbeD}ZjLpHvfAxh@jcArh@fc@uCfg@tJrv@rS`\\nBfr@~WpjAsEzwBfGvYzSlWnk@iAhMlzAr`Ajn@tg@raBkDrMwQoAmGb}Bm\\zk@{Hla@gf@vk@xXpg@{CbNbMfRhFpiAr_@hq@gCnr@`V|kBrc@~]~p@hPh_@nl@pBrVxuAlqAtaA|k@{JdUtIxF}AhrAqXrvBGrjCcUrw@oIx_Aj@z_C~LjoAxf@yE|TbL|Oh\\d[gM`w@n^d^lr@tLqPl]~pCaRl\\`Ejg@ePbtAl`@zw@fI|lBpr@n|AzfArn@yK`[hIhwCfl@sKda@z{@`a@dZeYfZaDlh@cGmDo^nsAui@fdAzDlUp]fK}i@haBjIhr@fNrM~Gz_@nRxHuJj`@n[`z@gE`h@x\\vl@oMnUzMjd@bHjwD~PvoB|O_CvAfc@|HfFdYeBvY`Ql^zo@TliA}OdS|LtOaAtu@dL|cBwc@p^xDj{@aS|_D|GzDqKri@|IpjA~H\\sB|jAnFhj@xIpSre@yTdMra@rAnyDlQboBv^lQ|a@}Ip^_\\~S`IlIrRpDd]oNnsCjDjw@bXbi@~c@aCZ{TLvo@vPhi@uJz}Bi]bbAiDzbB"
  },
  {
    "id": "2021-03",
    "name": "Paris - Vernon",
    "strava_route_id": "2861987676275212444",
    "cc_link": "https://classics-challenge.cc/post/168",
    "distance": 167252.37293710507,
    "elevation": 1571.910063690741,
    "summary_polyline": "{ufiH{|sLdAkMyiA__AvGwb@gbAka@gSdy@{IdGqHpTkInIsOxIeKqY{KdKkEgRqHfOcJfEiNeUyCbs@oN}HeUlGdKpWg`@ta@iNl_@vBpKaInNgOfTo[pJ~DfSez@zaAag@pwBa`@`hAuv@qp@ur@ePed@fHgp@b`@mSxVeXdn@a_@zdCf@nnAkHj]o@~U`Ehz@iBr`@nB~bBxUncB_JpUwJoE}^pDkB~WoUlg@g`Atf@eGkDCbJsW~f@sJtEkHhQqS|Jc`@nj@on@u@_K_Vs`@ug@|Dza@_L|LdHdTeBlXkYtb@ii@}IwHxpAuOsAeR~`A}h@_S}i@k@iXfMwHkHwIhWySdUwKxl@cXh^KvO_Jl]oW_BmS`M_LhSdNbPeD|Pyz@hSab@d`AiPxNsFpTkHsMgGtCqLoKaYkDaKtIaDlLuYlVnGnQeDvFoBdYhJjKfOnA_K`RxElMqD|nAaYpg@PpO{^hNkDhL{GmBmO~YoHpcAkOpAnBnKHpuAsCz]{Odp@qh@xi@yQkAuCfU{LzDsEvI{fBru@_CbW_FeAoAfEuPeFau@pKmb@kT}FtQgA`[dBzP}Gtp@p@~Osb@hxBaDhJsMeJwQnEl@jfAyKbi@qK|CcJjXmR`LaN~QcQrf@aPtCiRrhAcEbk@aMtNKvk@tGfn@wHv^iIv`B~FlApDhOuBn]cOj`AyD{@kB~Zmp@~s@{H~Bo|@lrAoJ~v@qx@jh@_OnC]{Fy@`HmKt@wFrI@xV{DpGsy@tXoUxViVh[lIza@gPhKcXwDAtEii@~@uZsb@kU~d@k]{@um@hVmb@}Aud@fUgQnQsk@_UoNeU{Vzu@aKjzA_Ajq@gJxHgAzNuNcKyGfI{T|D{Zvd@wVlPk@pZeNvi@ud@~NqHuKgb@b_CyIrRqCt~@xDzrAkBhy@cRbe@tE|q@hIdQiGrJ`EdE?sG|IyD`HxPh@fSzlAxGpWnGz]h[vFYwBq|@pY_b@|Ph\\b[mCjMpMtOMvXhKfC|F|JcIfGrTfHpDpGpRvc@nQfbAfDrt@uc@jd@~NtW~tCnHn_@cAjUnp@huA|UndAxs@zlAjEh|@fd@`iAxFvkA`MdJpfCkVeCu\\jKyl@SmWdO|DePiUxRfGpr@qbBDuMnV}NiEaIyVmoBDqRtGgC[mRdEiYfHhL`JHxFnLjGrAoF~ErNdAlBvy@wLxq@vHjAsT~`@^nDtWBPwH|C}@xv@bCbAwVjIkJuAtLnV}b@XqOmKkHnHo^dm@rYfVtDhj@n`@pm@tR~]x\\naAva@|Ud`@zJsQq@cPjO}FfNkn@dVia@r\\ktA~IgeB`HvGn|AsM~w@}|@blA_b@vg@_k@~fAykBtJu[~UiRdLwD|JdUdDaHxClIzG}FfNl]wKxT"
  },
  {
    "id": "2021-04",
    "name": "Paris - Montargis",
    "strava_route_id": "23983159",
    "cc_link": "https://www.classics-challenge.cc/post/169",
    "distance": 155262.2713938471,
    "elevation": 1058.7380004987106,
    "summary_polyline": "ab_iHi`vMPm]`C}S\\_p@nEqTtN{UpFeUfBsVB_p@tGuv@n`@kz@lJmMvTiAdCiIdE}d@ni@sj@R}`@|Xa[ze@oiC_KyL_G{BvBmIfP|JkHkR}IiLKcDyJeOdBaTzi@ci@|DtLxLiEhQnIzCjLpJU~Vx^|DhLhI_JxHbCdBsAfMo]tMyNxA_FbCmKbFm{@bScGiBqSzRcWfdAj@zEfC~BrJvBzB`Q@rEfC`KlR~IuFjFxDzEGjAiIxCwDRcDuB_JdIm`@bI_PxPyg@dXxOnNjRtWdNzZ`YnGpChTdYzK|SnDf`@tK|T{AxLeHbLjDpEyB`A`BzN[lFcSd[s@|NrBhLfLhIxOl`@tDxOnEbc@`Hj@AxQzIrFnGb@pHhJt_@xIdQpp@A~D`\\dOfiA|Hdb@fLfb@l[nT|yAjHoLlH~@nBmBbe@wAxEnK`Jv^~BHX`FnMrD`KxP]lElCjG|H{LwDyGf@_D`SaSjCxA`F}HnE{HJ{K~Qi_@rAQvHaNjb@k_@lIoLzEpApBmIe@iBhCkGjhAmNrcAzQ`]`B`t@~RxK}AlUwOxMiQrDmL~D{WpBqf@fFm@lBeQzNHnBib@rAsE_@cG`Bo[fHeBvNc\\zFmHpIch@~]dO~g@eN|@gAa@}BrQm`@hCyN~RiX|ApEn@`O`QfCpJkE|Owt@h_@d`@pGsLh\\xGr[lUpHtB|LoBhHdIzNhI~GaNhAqI|LgIzB_EtEeXj[A~C_F`J_E`FaJfHoCxS_@rRuEbDnBfg@ue@zS}AtW~DzQyAh_@rAxZxI~MvJ`DnGdX{FTpDtK}A|DiYzKya@lPyKvLg[j@cL~b@{gBeQ_O}Ze`@gJuPeVeUiMmHbE{WvNkh@|JijAjWn@rM{RnIkA|EqGlNs|@`Jo_@fKcT`Yy_@nTkaCrIah@vCaElL_DlE{Gb@ox@tEoKn`@kb@~MaYK}BtZeVgB}HwB{d@_CeOc]y`BtBomBt`D}nFlMkh@z@uTnOo`@uBw^p\\qxB|NgDrGeG~De^lJiVtBs@|E}JxSsB`]iMtKwErH{JpCh@~GlInDgBfBiGvBrAvLuCrE{JpXbFbGaGjy@{P~FeL~CiNb@}UtROnEqhAlPyc@pGck@e@{kAnIeNzCs\\dE_MjE_Yj@eZxCsKf]~Ud\\hDrVxJllA~r@ny@hJdRtIhIP`VyHjJpExN_@tBlB|BcEzF}@bNrQxXvEbKtIf^hFnFg@vGsOpEiEfSwAzKmJfIvGfAbo@q@fJt]~XxQlUtY|J~AaCfAeK~CsDpG[jDtD`UoDxIgOfh@of@rJyCtLaMbN}TlV|CjSqB~FjCvAbJtNxHjm@S~Knp@lO`c@lBjMrDjI`EfCh@xf@nk@y@pDjB~OfVzHqHd_@hGfWhIpJbKzP`J`PeI|RqBf_@vFdJa@fFbLpIbF`DrG~N~@|QhTvXfPz\\gE~m@c`@jF~@|TbPhl@Zh_@`PnJtHzGpP|NhQ~Rbj@no@pp@vBpLcCnLb@hBjDE~AaHdFYxp@vPdPjIfCnHGvFpEbIbEdRb`AhgCdo@fEfQvVrLYvFzC}yA|dCkDbSyCj`@~r@f\\lHn`@|HpRbCrLvD|BdEpI`B~RbNpYhi@`TtVeNhVqGn\\hA|^bMUnTpEzEvB~JdLrB~@~NjW}MdEzGr[pHfLgn@zAr@gFoCbB[\\kMzLjD~A_IHoKmBGiFzHs_@cJ{Be[aFyPoRvCe@sG"
  },
  {
    "id": "2021-05",
    "name": "Paris - Crépy-en-Valois",
    "strava_route_id": "2887703875178144968",
    "cc_link": "https://www.classics-challenge.cc/post/171",
    "distance": 124651.01638330898,
    "elevation": 1039.5977256398478,
    "summary_polyline": "exliHyuvMj@~Js@zOTBjCB?HrBBU|CqKS@StA_ATaG@aDCkBYmGSyCiEk@EMKqBMmLBYCKa@ye@FcDDYTc@@Ie@_ISoACwAwF_f@AeAo@uFIUQ_BA_@Ik@IYsDg[SyBWaB_BiNu@iESk@OkAcGch@uMsgAD[MmAO[eGgi@i@{C[gCr@wA}@uGsEi_@qCcVmBaOy@aIyAgLYyALq@wBkQKKi@_EFa@?Oa@{Bc@iBw@sCs@uBiCgEaLmNcCeCOFYYGMKi@qEuF_MiNuBkCi@k@KEoGkH]MSWK]eCkCyBmCaLqMYU[@k@o@CQmBcCMa@oKwLeAqAaA}@KWaBaBG?aAu@G?SOkAyAIe@wHuImAiBwA}Ce@yA_AiDk@_Dy@cF?GJWAq@cAgGEISQ{@mFQo@Ek@yAwIuB}M{@cEQc@kAqHAq@UqBe@wCAS_@uBQiB[qBOqBc@eBmKkr@NO|@g@e@wDoHyf@eK_s@iA_Hg@@[Ew@aAYBm@qBaByGs@cCm@cDUwD_@mD_@mBo@eFs@qEMeAg@kAMc@UmDiBcL@_ACW_AiGSm@Sa@K_@OeA?u@CU[m@kBoLq@qBOsAAg@Q_AQe@_@}Aa@sC?gBCi@aA_I]q@Oq@sA_JU_A_@o@Og@m@eDw@_GkBoKaBeKCq@@]oCuPGYYm@Ou@MuBkAh@AmCc@eCW{BAm@B{@J_Bb@mDj@yARmA?qBfEwZNiBJcC@mBCaBi@uGGYgAwBa@eAaB_Fy@aD[iBIwA{@iIy@qS@gB{@iRAgAB]GoAIYaLitCsEmeAC}BDEEDB|BM_DKw@YmACu@oBVwAAKMEQ`@{Fb@oEAo@Gm@Kc@{@iB}@{Ae@m@k@c@iAi@}@Uy@K}AK_@O_@c@Oi@q@uDIYa@o@{Bo@i@d@]Te@JiB@sAg@yBm@iE}AqA_@SCKmEx@cC`@s@TYXQPi@@cBP}EMeBiC_TUeBi@mBwE}McG_P_BuE]kAOeA?sB`@uRHsAP[j@i@lBo@ZORQHOJg@Dc@B}DGaGDeCb@eHFoBaCFuCGyNdAuRzA{CXw@NuPfFoM`@qOZgCJm@HYR}BdDoAbAaJnGk@HiHm@kDa@{@Uu@m@gGwIcHoFeHaJcD{DiJwF{DuAmGoAcB{AyAyAk@_@qBgAcBu@y@Bw@Ee@hE{@bFIVQdA[Aq@F{Dn@ye@zGo@Ai@G_Bc@cDu@sIyAgJ_EyEeCgLaB}GmAc@?eTzEuFf@_Cv@iIjEeIfCgGhCuCxAmBnAiI`GmFhE_K|H_BpBi@b@iElAk@JGOECIDGXmAHUJYDYEcDb@eBZo@AaBTe@N[V[`@y@lBU`A_B`Fe@p@g@d@aGzCwErBsALwAKcA_@}@i@aAeAw@wAkB_Ge@gA[c@c@Ya@K_@A_@D]J_@VqPxNmE~Di@j@_@XO@g@zMO@GPBNa@h@KTGXAXFhEKdAi@pAOTg@RgBV]LOPwAmBSa@Sw@Ge@Ao@NaC?_@Iy@Q_@MQSOUGW?UDSHQLSVqCtIo@vAY`@YTs@TeFz@u@HgNdA_Jx@KHGMOAKPMCY@mNfAiCf@m@FU?SGQMMOWo@OEI@GFELC\\Wh@oDnEyGhHwBjCWViF`EuBvAw@^e@b@w@LMKQ@mD]O@aARUBUAm@Ok@c@UIm@AaB_@cA_@WGuIq@e@G@a@A`@a@`EM`C[pK[~B_BnEeBfGoCtH_@zAYfCCbA@bAp@~M@~BFl@H`@FdBEl@}@fFY~@iKhZuClNAh@HpBfBlSL|CD^b@nBtAtIOh@mA`Ig@jCkJdLgHjIa@t@UhAa@bEu@jEm@bCQd@OPgE`Di@RYFc@?{Di@i@B]P[h@uDtJwTpd@kL`WaOnt@QfAwIdy@C|ABnCU|Mo@zKFlETnCLp@@ZGb@iBpCy@r@WHMEaFmEoJsHWCUJSXkA|CeDwD_Q}Og@o@[s@?}AFoCPsBhBoQ^oMByBMeB[sA_@{@a@s@gGuHoK{RwIoPk@qAYiAMu@{@Ou\\yn@kTea@{Sw`@mBgDmW_f@BFm@oAe@e@ax@kf@}YaRk\\mSoBeA_NuIaRyKqBoBm@KqHyDeFaDyQ_KkWg[{Uw[mCcDmCwR{@kFg@mE}@cH?W^wFaEq@aM{BuLmBm@Y_lAobAcB_BaDsC[Um@s@gBgDyh@rBwF}@_DkAkSt@oBt@y@BaDAMDaAxBiBpFmAxBa@DaBIkAQc@S_ArCYh@u@l@kA|CeA~HyGtV_J~_@uBbLuEtQMRGBHCa@L]Dc@Gc@YMCWHSd@a@TMNO\\Mn@C`@\\zH@v@G`AOv@k@`BsA~CuJtPiB~DwCbBiBlAyBjCg@r@aDfGw@`AwBfDGn@@tD[dBm@hAIXUtEMbEW~ESz@gIxTiDzJg@rBiClNqAvHcBvIUfBKjBO~@k@|By@dEwFvHWLi@HKE_@_@cBaDOOe@AgE^cCbAuEbAkDnAEd@y@n@cAfAQr@q@rGg@jAwC~DBHiC{EcB_EiKmWgGwO]sA{GyZ}AsFsAaEeLaS{EcM{EoJcO}XqTkw@YqAyA{EKk@Eo@AmBCc@Ic@[u@Mc@XyAsAcC]_Ag@_FuAgOUsBUo@{B}Cg@aAk@eBWsAyFig@IgC@qWH}ALgAfAsF|Hk^p@qC|AiFDWKaMBiG?V{OgDSMW_@Y{Bq@uVoEsG{Zwd@qKwNk@]k@KeI\\yNnA}FdAaBV{Fi_AoFe~@YaDuImx@S}AmGq\\u@gEI{@?aBtD_m@bE}^|AtBp@b@dBVdDt@|@d@|DbF\\wDH_@r@sARi@Fe@Ei@GQk@q@gCmCWo@MiAAw@DcAl@mHFgHbAsM@g@GWOWi@]e@i@MYe@_CSs@mEmNwCaKMkA?}AFaCIqAmBiMcCmXY{BBJgAsFe@gBsAmDqA}B{@mAa@c@_@Ui@Oi@Gg@Q_@EuBu@w@u@i@{@w@}Ac@s@[SYo@q@m@g@SoEKqP^yAI_CeAMKQUMa@Ii@OwCBmCXsF@gAQ}FIe@KM_@IWXKd@Ap@Dl@RxABdAI^_@f@i@b@OVG`@K`CSb@MHQ@UKMOI[A{@FeBS}BO_AMYwBSOM_@i@ISc@kA{@eDq@gBi@eBMs@sAgFaAyCu@mBa@wBuBsHMYcD_EwAmA}@oAkHgMmEyIe@u@y@{Au@_Bu@gCi@uBqB}JeAiEaB_CsB_F_@oCgAwMAwBw@kJcB}QQ}Ae@sBeOmg@{Jw]iAiCgCgHs@yDcGsV}@aEq@_BaA[mKmCsDmAa@a@uHqSsUin@iHgRg@}@q~@vl@iAzBeG|SEp@DhBAVEPI@MGQeBSsDGoBPgCEu@Kq@]WSDwSpMgMxHUXTYaLcMwIiJkOyOeEwEf@eVJwHGo@U]eDuBsCyAg@g@_@kAc@oBgA_RBEAiBDGIOUcA_AyPfE}QN_AJqBMqQB}GAyA_@cJB}Bf@gIlAsTP_C@i@`DwL?Ku@wFBWHg@Xs@Za@t@e@vJkExAiDVu@?OOaBeCePQaASo@c@}@qG_JWc@_AwBqAqEMiAG}AAeDXgE\\kCVqARm@\\q@PU~@y@tC{Bp@c@r@Uf@[^e@|@{B\\g@\\[vBoA`@e@R[L_@RaARmDGaAmFa]qFe_@Q_Ba@iFYwE}@e[yAq`@SgEUeCgBoNyAeMuFsh@m@kGMqCBqA?cHBa@LaAd@qAXcAL{A?sBJwHMqDA}DBcCFs@Eg@DmLb@iEFUB{Ad@gIB{ArFJ?y@`AyGDw@?qBDaAl@uBf@uAPRd@g@h@S[y@kAaCm@}AnBwBp@mA\\iAd@mB`@}@RUPIpBEr@WhAi@dAu@rAg@fB_@z@I`AHfEfBl@Jp@@pCm@tZgKxAy@l@k@n@eAjD{HnK]fAInAUxWgMp@a@jKmIfPoJr@]zAUH?JGNm@b@y@PGJJf@z@LFLCLMHQDY?WQuBTqD`@vGFbKBTTbApBlGr@lH^jGCtASpAaBjECb@@dAPx@vCbDhAtAb@b@vIbG\\\\dGnJtAhBnJlKJPFh@Gh@_Kjb@?j@|AvMJlBiHtjAeAnQUVs@RC`Gp@VZVTrA|U`Dp@LfAx@vGjEbShLVD|CRnADn@OdK|AZBb@Ap@O|GsCr@Sz@G~@FvLlAZ@XEPWrBeFjGqJdCmDPe@^iBR_@TQPIPC`@?dBJPATId@]Z]Ti@\\qAtAsGBk@?{ADc@hAcBTg@DWLqCHs@Ne@LMVG~D?`@LZN^FXKhA{@^M^?RBj@Lx@\\|@h@p@~@l@xBXjBb@nAbDrEh@j@VBrCsDTITRh@~A`BwAvB_CX?Cl@Dd@Ld@`IzN\\v@TfALdCLdAX`A~GpMZdAFv@@~@OdFD~@V`ATZjGdHx@pArBzFhDhFbEdEh@r@XLb@QhBwCVSf@GpCb@h@Sf@W~@{@XBJ\\Sx@c@h@_@\\i@x@iBtAYXKv@Hl@`@\\b@KZi@~@wB~FuDTAJREb@_EhD]\\_@z@C`AHz@p@bETn@\\d@dF`Ero@jd@dN|JpAhAx@\\`EBdACxBWpACf@Jp@d@pAp@x@j@PxEc@bE@|BHr@`@bBXl@`AxA^`AVzAThBRdDfAdFhBtGrFnPzc@z~ArF`M?\\VV^h@jC|Fn@lA\\^nAbAjKhHfB~@hBt@bFhBxEpA`@NZTf@l@Xd@HZF|@SnFD~@PvABl@?rBJbBCh@Ih@c@tAcA`CQr@?ZFf@b@p@~BrBp@dAbApBVz@@`@KjCBN\\N?FHyD[gDBq@Ni@N[n@g@`@MZJd@\\NTd@hAJHN?`@GhAa@~AGh@Bz@NxEfCJ?nAy@pFDPFnB~AxCnCHc@HKhAI`@O"
  },
  {
    "id": "2021-06",
    "name": "Paris sans les mains",
    "strava_route_id": "2892780680068432842",
    "cc_link": "https://www.classics-challenge.cc/post/172",
    "distance": 59494.03522567121,
    "elevation": 382.8805244326317,
    "summary_polyline": "iyliHm{pMkE~EW]sD}DODqAuACmEDiM^qNXsEIUCY_@wP@o@G}CQoFIqE|@}ALc@tA{Bd@}@XKd@w@PMd@Kx@LJDNXFYCKMMGAn@qOfDw@NIbRcErHm@bCHOmXbA?HABEEUQyDEeJ?}\\[aPKg@EIwG}KiAeBYm@FSGUa@UG?@S\\uBV_C\\mEMg@fEoRz@_BFGz@Kz@j@JNXlAZfFP`@\\PC?VBlGQpBi@p@q@`AiA\\FOxCO~Aw@Hs@b@cAv@k@TYTa@~@Up@y@~IGfAB`@F\\h@lBJRX^FX@h@N^RX^TNPh@rATt@BV`DNrBbAn@d@hAjCjB|AX`@NZNn@?n@bAnCXj@d@TgAdBhF~GhElE`DhCp@r@h@p@Re@HEpBMl@?ZH^EzDqAvHaGVDHk@RE~DaDhD~LXnA@VLKlHsAzHe@n@mAJd@FFLD~DQtCgFJ[`@l@TVNMhB}Et@oC|@{G{CkB}DoB}@w@yByAGg@B{@Ku@?q@F[L]h@}@Re@~A}Gf@iHbAkPvAeMg@s@e@gA_CgLF_@CYA@rFqExB_A`BaArCeA~LaGbBu@xAg@jAY`G}@`AIpAAtAHvAb@dDx@jCd@BpAJ~@TGJBPEFWk@eGVIlBkAf@D~@Tv@f@`FpDtBnAdDbBbC|@bD~@hDl@bAHhGC\\BBBnFG@CPAV}KJuARF~H|@pDd@jD\\XgHLaALaBvTlCdBVBTSpE@|@Ff@HNJvBIh@[z@EZ?\\JLHb@lFf[n@nDx@|DdAxDn@rBv@pBxApCrAzBpAfClBvEfAhDbDvMACtBsA`A_@b@CpDF|Fk@rCCh@BnALfATz@X`FnCbAV`@DdB?AUTGDoAKGNwAz@kDPCFu@}@OJsBl@HFgAYwBU{@_AiA]IiDZcAPoBj@UsAQkCc@iDm@aDo@qCgAsCo@mAqAoBmA}@_BcAUUdDKxBWlGeAjEiAdHaCvIuD|CyAxCkBROhBwBxBcEdAkDrA_IVmCTiDr@aSXoE|AoOxDbDvAbBp@hAr@lBHOH@@mBImKF?PmDTiJJwCPyCr@wGf@yCf@}Bh@uBBBHpB{AnK[fECz@KrJNzSArHdAJ@o@KAABCd@@@dD`@XgGJCHbE@lCCpA]lEo@nCEbB]jEK`FF|FD`@l@rBTjAJpB?xABTVVJZFpADdDCxAOdDi@jFa@zAR|UYtA?pDCxAWhEMn@Ex@`@bAQfCKtCCzDBxAPlBn@vFd@zGRvD@rBGvCBNE~@ETWvI[tB?A_@zAGAuCwA}BrO@Ra@pCCCNkAB@OjABLdI`DLm@L_@CCM\\If@BBT{@Rk@BDYz@Ox@DBPeAp@cBbCwEnA_Bh@]n@SxAUnBHv@L~A\\y@fEoAlBmA|@[H@iXBS@cAEaADCOEO?OKgF]DyDF_CnBGKoFeBgUzCu@m@qGBaBxBeJhAoF_CaB]G_@Jk@CMK]q@CUAaBF{Cf@sLLqEH}JEKB_@KmGSyRBwGu@{JZgGd@iTa@uES{H\\wTFgAd@kCVu@zA}C`IcKjO}NXo@tAmFfAwDzGcQpBoEnEgHpAgBrHcMb@k@f@g@CM|@k@IOaA\\G?mA{DKc@@EBAFJD^KH[]K@EGG]NOh@AJE?@fCgA?IzAq@|AKhAAnCRd@IpDsAl@[n@OrDyAJHnA_@JOFYvBOfAQhAGzEq@tCe@`B]rEiAjCa@dA?zDL~DU`@Gv@Wx@g@|BuB`G{FjC}ChAyB^_AnE}OdBeJPgAnA}KzBuMRiBTqHL{Q?}CEwAIYIuESkF]iCEm@FiCWiFOgEEwDB{IdAc]RaICODsJEg@Fa@C_CGq@WeAoAaDQQGc@qDcISYo@qIMeAk@mCIGEIA_@W_Ae@qA{@_BSMCGASyDyEEEOEEIAMIMwCqCcCkBWIWAs@HeBy@MAQBSTa@lASNWEMGEIE[HeBA]GUOOqBk@_@@UQ]GoCIUJQGmFm@I@GDG?SSsFi@Q@MIq@GqFr@IDKAuARyAFkB@GDWBq@QcBE{Di@I?QHOGeBFwGbAeBd@Q?EEM@GP@HQPwAdAkAbAIPQFyCdCIRM?{@|@mCvDyBhEkAzD[rACj@KZeAlGOfA[vFYdHGlCG\\KfExCz@tA\\|Bb@i@lGSvA_A|DYr@?VDFPLVB?j@Ed@iA~By@rAkAxAALRzQLjR_@R_BfNSbA_@Pu@CW~Bk@jD_@jCS|C]dCCp@Qp@_DxSAl@IRGf@InBWlBMnFGbA@d@k@nFCv@IV[rES\\i@nEc@jBe@~B@TDP}A`F{BxJg@bBsClI}AvDqAnBoCfDmAnAqA`BQf@If@Cx@t@|EId@KRWVYJiAm@MCY?mAp@s@VeBpAy@f@SG_@CsBHoEdAaEz@k@F}AGwBo@y@a@mCcAsDWaAg@eDyBk@k@_EsFuFeIo@kAuC}L]}@Me@a@{BaAeCu@eAoAmAiAwAeBFOHILMf@A|CCT]z@E^?f@CTw@zB[n@Y`@o@j@_@TwBf@{@eA]w@a@FYnEqCxPCl@[Hm@VsA`A_FzFo@n@mBfBsFnEgAnAgAzAcAhB_BdD{@~Bu@nCi@~Bs@zDoA~JkAhMET@ToBzZm@xG{HoBD?yA[KOiBq@c@a@We@m@wAkCiHcB_De@o@mAeDUg@II@UGMGCKL]Wo@Yi@Km@Ci@Bg@JoBl@k@Da@Ae@Ke@QYU[Y[e@Ym@iAZa@Ba@A[KaE}BgEZQEIGGDYDYGk@@}]bHw@Z_DhCGHEGG?IFAPUDy@l@{ArA{GpFI@IPoAtKc@M}Dg@mBbLcBjJs@@YLYXU^Md@C`@KCa@BcGFwQ@e@rAKs@EKyB_AiAs@gBwAME}HsFgAq@cA]UAIj@oDhMC^eAzDkAnC}GhIm@x@wAxDsA~DW^kCtHEReDta@gAlMsA~PEJWVnBrHzAlGy@kDv@fDIXWnB[jAKLIKK?GFCP@PJHJAFf@oBtBkAnGILYe@u@u@Hl@f@fASTOrGGRSJLFBHHF~IdE?HJRN@I?]|LbGtGj@PCAQxF`DhCp@r@lClD[h@qAFUHLlBBrAAp@]fCu@zCIj@@x@p@zBDX?bAcFzWSr@_ErJqLzOgAdA{AfA_@NU?{@W]hFUlABfAg@EqHvAIVwGpAMWc@[iB\\i@T{YnE}Br@{@d@u@f@_B`By@`BUv@q@lD]hDMrDCtBBJw@?EhMBbGfG|GXw@JNlEaF"
  }
]
